# NodeId	NodeId
0	78
0	111
0	121
0	313
0	424
0	525
0	542
0	708
0	830
0	864
0	1051
0	1079
0	1080
0	1149
0	1200
0	1549
0	1656
1	71
1	248
1	542
1	627
1	858
1	893
1	949
1	1617
1	1733
1	1787
1	1875
2	133
2	334
2	592
2	752
2	968
2	977
2	1016
2	1089
3	97
3	286
3	679
3	766
3	813
3	847
3	996
3	1432
4	133
4	438
4	802
4	930
4	1260
4	1595
5	55
5	682
5	1017
5	1766
6	231
6	379
6	585
6	673
6	908
6	1564
6	1601
6	1627
6	1636
7	85
7	94
7	406
7	409
7	502
7	928
7	1118
7	1368
8	35
8	88
8	214
8	487
8	503
8	618
8	720
8	839
8	855
8	1125
8	1378
8	1431
8	1703
9	24
9	105
9	112
9	127
9	145
9	398
9	590
9	784
9	925
9	1013
9	1035
9	1108
9	1391
10	54
10	635
10	737
10	979
10	1265
10	1277
10	1715
10	1824
10	1865
11	26
11	92
11	593
11	648
11	938
11	1694
11	1705
11	1812
12	38
12	72
12	164
12	308
12	412
12	530
12	721
12	1187
12	1567
12	1968
13	115
13	174
13	248
13	288
13	333
13	364
13	421
13	904
13	917
13	939
13	1755
13	1778
14	124
14	147
14	153
14	263
14	700
14	791
14	835
14	1231
14	1247
14	1353
14	1415
14	1566
14	1586
14	1784
14	1900
14	1964
14	1994
15	34
15	196
15	243
15	394
15	420
15	1587
15	1628
15	1773
15	1905
16	70
16	153
16	509
16	766
16	944
16	1116
16	1597
17	152
17	331
17	564
17	571
17	618
17	953
17	960
17	1364
17	1538
17	1768
18	462
18	514
18	739
18	1458
18	1926
19	309
19	319
19	338
19	430
19	448
19	605
19	666
19	747
20	41
20	110
20	161
20	172
20	218
20	227
20	414
20	423
20	484
20	688
20	794
20	1305
21	198
21	343
21	425
21	508
21	539
21	551
21	645
21	738
21	1359
21	1436
21	1952
22	210
22	212
22	381
22	766
22	1089
22	1186
22	1674
23	98
23	109
23	338
23	674
23	792
23	800
23	890
23	909
23	1295
23	1527
23	1556
24	26
24	54
24	203
24	491
24	673
24	678
24	815
24	842
25	41
25	211
25	268
25	299
25	312
25	575
25	629
25	662
25	862
25	988
25	1010
25	1101
25	1409
25	1595
25	1857
26	123
26	997
26	1362
26	1489
27	83
27	279
27	486
27	584
27	746
27	761
27	876
27	893
27	1097
27	1543
28	32
28	133
28	279
28	600
28	645
28	769
28	801
28	813
28	871
28	956
29	104
29	283
29	300
29	490
29	545
29	559
29	631
29	876
29	877
29	902
29	904
29	952
29	972
30	190
30	301
30	308
30	398
30	426
30	492
30	843
30	913
30	929
30	946
30	974
30	1174
31	55
31	529
31	626
31	681
31	711
31	946
32	270
32	326
32	531
32	703
32	761
32	863
33	59
33	70
33	178
33	229
33	337
33	518
33	529
33	690
33	942
33	966
33	970
33	1205
33	1376
34	221
34	319
34	358
34	562
34	809
34	982
34	1198
34	1292
34	1505
34	1700
35	66
35	129
35	152
35	350
35	535
35	949
35	1453
36	117
36	484
36	509
36	511
36	731
36	806
36	983
36	1171
36	1770
36	1934
37	431
37	724
37	769
37	949
37	1327
37	1401
38	83
38	131
38	246
38	460
38	462
38	679
38	757
38	859
38	1168
38	1674
38	1826
38	1838
39	432
39	708
39	848
39	903
39	1214
39	1379
39	1571
39	1982
40	94
40	104
40	219
40	254
40	285
40	350
40	352
40	365
40	607
40	704
40	767
40	775
40	826
40	1085
40	1446
40	1851
41	162
41	294
41	382
41	489
41	508
41	529
41	542
41	616
41	699
41	776
41	958
41	1035
41	1559
42	111
42	175
42	242
42	367
42	395
42	429
42	513
42	842
42	865
42	883
42	1271
43	57
43	75
43	93
43	94
43	161
43	191
43	197
43	413
43	475
43	513
43	593
43	689
43	831
43	940
43	1605
43	1624
43	1634
43	1821
43	1925
44	135
44	362
44	419
44	633
44	704
44	1428
44	1636
44	1660
45	210
45	447
45	662
45	666
45	745
45	747
45	979
45	1219
45	1803
45	1845
46	48
46	331
46	365
46	433
46	1330
46	1816
47	56
47	111
47	161
47	183
47	365
47	673
47	826
47	877
47	1678
47	1752
47	1948
48	63
48	283
48	318
48	572
48	631
48	1177
48	1964
49	95
49	170
49	223
49	352
49	495
49	904
49	1328
50	658
50	737
50	753
50	923
50	1336
50	1616
51	101
51	196
51	436
51	438
51	698
51	881
51	1235
51	1320
51	1393
51	1940
52	218
52	386
52	430
52	488
52	571
52	604
52	659
52	744
52	858
52	1653
53	265
53	715
53	744
53	751
53	1018
53	1177
54	170
54	246
54	292
54	318
54	1491
54	1872
55	138
55	521
55	721
55	884
55	953
55	1163
55	1961
56	105
56	160
56	469
56	666
56	1012
56	1649
56	1801
57	205
57	256
57	557
57	863
57	1001
57	1072
57	1148
57	1556
57	1790
58	106
58	220
58	465
58	697
58	1115
58	1223
59	95
59	283
59	452
59	489
59	653
59	733
59	814
59	840
59	890
59	905
59	942
60	135
60	373
60	400
60	542
60	577
60	586
60	782
60	896
60	959
60	1557
60	1714
60	1888
61	161
61	401
61	444
61	495
61	707
61	819
61	1268
61	1654
62	74
62	298
62	301
62	537
62	588
62	595
62	667
62	836
62	927
62	1899
63	291
63	873
63	1208
63	1240
64	68
64	213
64	373
64	504
64	536
64	600
65	255
65	289
65	874
65	1368
66	77
66	149
66	431
66	494
66	505
66	559
66	678
66	712
66	757
66	832
66	853
66	881
66	1050
66	1486
67	395
67	522
67	550
67	553
67	785
67	791
67	842
67	1059
67	1392
67	1500
67	1665
67	1855
68	83
68	95
68	212
68	443
68	1017
68	1198
68	1453
69	218
69	298
69	393
69	439
69	663
69	1878
70	231
70	247
70	329
70	406
70	482
70	655
70	920
70	1108
70	1889
71	116
71	131
71	217
71	626
71	693
71	885
71	938
71	1450
72	102
72	168
72	344
72	358
72	501
72	522
72	828
72	904
73	167
73	213
73	538
73	738
73	843
73	903
73	1196
73	1770
73	1781
74	483
74	546
74	552
74	707
74	826
74	827
74	897
74	1703
74	1794
74	1859
74	1881
75	295
75	298
75	316
75	386
75	412
75	506
75	576
75	697
75	750
75	766
75	955
75	982
75	1148
75	1895
76	119
76	155
76	196
76	389
76	412
76	467
76	475
76	476
76	717
76	1070
76	1087
76	1158
76	1959
77	109
77	908
77	911
77	1020
77	1243
77	1695
78	437
78	579
78	740
78	1743
79	249
79	428
79	503
79	510
79	534
79	627
79	775
79	791
79	828
79	861
79	935
79	1013
79	1687
80	97
80	170
80	360
80	603
80	607
80	669
80	801
80	1114
80	1260
80	1390
80	1826
80	1955
81	231
81	448
81	469
81	478
81	613
81	641
81	1291
81	1408
81	1547
82	359
82	422
82	473
82	498
82	719
82	832
82	1600
83	156
83	338
83	676
83	688
83	1518
84	106
84	239
84	289
84	490
84	519
84	597
84	641
84	664
84	774
84	1375
84	1615
85	118
85	478
85	618
85	665
85	740
85	744
85	760
85	956
85	1288
86	266
86	449
86	487
86	511
86	517
86	540
86	659
86	679
87	166
87	213
87	284
87	312
87	388
87	784
87	1396
87	1522
87	1675
88	102
88	283
88	322
88	331
88	377
88	436
88	479
88	553
88	922
88	1224
88	1913
88	1959
89	199
89	345
89	653
89	719
89	886
89	981
89	1845
90	236
90	296
90	787
90	807
90	953
90	993
90	1397
90	1663
91	130
91	513
91	804
91	881
91	883
91	980
91	1297
91	1737
92	293
92	303
92	351
92	611
92	673
92	711
92	797
92	856
92	969
92	1215
93	290
93	482
93	506
93	690
93	786
93	1920
94	237
94	239
94	490
94	545
94	562
94	848
94	1331
94	1446
94	1475
94	1742
94	1829
95	125
95	160
95	190
95	339
95	514
95	525
95	588
95	592
95	693
95	731
95	803
95	845
95	1177
95	1660
95	1908
96	156
96	281
96	448
96	632
96	763
96	901
96	1147
96	1179
96	1248
96	1755
96	1882
97	585
97	982
97	1494
97	1612
98	393
98	712
98	717
98	739
98	1385
99	271
99	273
99	421
99	485
99	634
99	644
99	689
99	984
99	999
99	1032
99	1249
99	1538
99	1580
99	1964
100	120
100	162
100	196
100	367
100	432
100	461
100	557
100	743
100	1375
100	1437
100	1442
100	1743
101	197
101	585
101	801
101	951
101	1220
101	1603
102	265
102	275
102	333
102	442
102	480
102	489
102	546
102	925
102	1225
102	1310
102	1661
103	296
103	366
103	461
103	589
103	957
103	1417
103	1730
103	1841
103	1993
104	114
104	505
104	598
104	787
104	1131
104	1308
104	1487
104	1815
105	225
105	491
105	601
105	729
105	747
105	756
105	1083
105	1280
105	1483
106	126
106	305
106	654
106	811
106	887
106	971
106	1060
106	1346
106	1526
106	1686
106	1811
106	1899
106	1986
107	290
107	321
107	341
107	467
107	739
107	879
107	891
107	1063
107	1255
107	1827
108	167
108	209
108	523
108	540
108	573
108	601
108	701
108	717
108	1051
109	150
109	654
109	696
109	718
109	791
109	855
109	931
109	1355
109	1980
110	121
110	289
110	312
110	557
110	669
110	993
110	1095
110	1181
110	1783
111	180
111	306
111	353
111	594
111	1058
111	1403
111	1853
111	1942
112	691
112	713
112	753
112	1318
112	1465
113	183
113	334
113	487
113	587
113	619
113	682
113	799
113	1146
114	147
114	490
114	847
114	1229
114	1552
114	1751
115	875
116	340
116	556
116	916
116	963
116	998
116	1595
116	1690
117	148
117	367
117	391
117	451
117	509
117	665
117	1384
117	1581
117	1757
118	559
118	694
118	942
118	989
118	1222
118	1451
118	1519
118	1841
119	481
119	990
119	991
119	1146
119	1178
119	1920
119	1975
120	203
120	216
120	416
120	583
120	716
120	731
120	733
121	156
121	331
121	367
121	633
121	636
121	1078
121	1170
122	370
122	556
122	647
122	795
122	817
122	1414
122	1595
122	1825
123	164
123	454
123	994
123	1049
123	1202
123	1488
123	1533
124	271
124	340
124	364
124	413
124	491
124	519
124	545
124	967
124	969
124	1119
124	1847
124	1944
125	226
125	406
125	545
125	625
125	635
125	640
125	824
125	1421
125	1512
126	136
126	293
126	345
126	553
126	626
126	651
126	840
126	906
126	1161
126	1476
126	1657
127	164
127	273
127	417
127	603
127	609
127	928
127	933
127	994
127	1294
127	1628
128	313
128	346
128	348
128	433
128	488
128	651
128	1201
128	1988
129	297
129	970
129	999
129	1372
129	1709
130	270
130	506
130	598
130	622
130	769
130	949
130	1379
130	1389
130	1595
131	328
131	468
131	651
131	671
131	810
131	977
131	1070
131	1115
131	1357
131	1683
132	310
132	311
132	366
132	552
132	568
132	713
132	728
132	945
132	1012
132	1255
132	1632
133	145
133	263
133	274
133	388
133	558
133	730
133	998
133	1042
133	1349
133	1790
134	199
134	217
134	259
134	270
134	584
134	760
134	811
134	890
134	1170
134	1378
135	211
135	233
135	299
135	388
135	581
135	913
135	1494
135	1514
136	233
136	267
136	696
136	732
136	752
136	990
136	998
136	1591
136	1812
137	166
137	188
137	198
137	280
137	372
137	394
137	794
137	870
137	874
137	1377
138	269
138	744
138	939
138	954
138	1691
138	1799
139	200
139	205
139	269
139	325
139	740
139	781
139	1103
139	1258
139	1896
140	284
140	479
140	625
140	948
141	287
141	309
141	458
141	471
141	710
141	829
141	881
141	947
141	1056
141	1838
141	1885
142	173
142	244
142	288
142	587
142	803
142	1223
142	1314
142	1855
142	1901
143	152
143	331
143	433
143	971
143	1157
143	1603
143	1918
144	375
144	387
144	558
144	616
144	663
144	713
144	768
144	876
145	150
145	249
145	260
145	378
145	411
145	769
145	1220
145	1356
145	1671
145	1949
146	241
146	288
146	317
146	378
146	406
146	463
146	556
146	972
146	1464
146	1604
147	562
147	679
147	796
147	926
147	1099
147	1261
147	1510
147	1777
148	356
148	484
148	566
148	631
148	637
148	655
148	668
148	993
148	1506
148	1764
148	1901
148	1993
149	224
149	289
149	539
149	732
149	752
149	803
149	819
149	831
149	992
149	1162
149	1307
149	1446
149	1711
150	477
150	790
150	823
150	968
151	248
151	602
151	640
151	646
151	931
151	1618
152	428
152	690
152	895
152	1095
152	1271
152	1571
153	305
153	675
153	811
153	823
153	834
153	841
153	1058
153	1493
153	1514
153	1568
153	1581
153	1869
154	251
154	391
154	415
154	509
154	591
154	793
154	862
154	953
154	1066
154	1149
154	1152
154	1436
154	1464
154	1519
154	1685
154	1786
154	1936
155	439
155	735
155	827
155	1761
155	1941
156	512
156	709
156	759
156	773
156	1535
157	284
157	564
157	567
157	581
157	844
157	882
157	1093
157	1171
158	482
158	492
158	539
158	646
158	698
158	709
158	1178
159	215
159	814
159	914
159	981
159	1136
159	1840
160	287
160	476
160	488
160	641
160	654
160	705
160	852
160	943
160	1444
160	1477
160	1654
160	1703
160	1891
161	214
161	435
161	620
161	757
161	1045
161	1377
162	387
162	498
162	544
162	632
162	776
162	1188
162	1230
162	1255
163	275
163	285
163	420
163	591
163	1497
163	1675
163	1719
163	1843
164	172
164	177
164	419
164	880
164	1047
164	1108
164	1267
164	1963
165	266
165	447
165	618
165	632
165	677
165	879
166	525
166	616
166	629
166	891
166	916
166	1731
167	388
167	527
167	578
167	607
167	673
167	683
167	709
167	714
167	1085
167	1115
167	1194
167	1472
167	1852
168	417
168	822
168	878
168	1509
168	1986
169	429
169	440
169	500
169	507
169	599
169	783
169	921
169	1470
169	1900
170	509
170	611
170	939
170	1531
171	366
171	391
171	1519
171	1569
171	1751
172	573
172	733
172	781
172	843
172	845
172	904
172	959
172	1026
172	1751
173	208
173	282
173	681
173	708
173	929
173	1993
174	468
174	536
174	557
174	559
174	817
174	870
174	1208
174	1358
174	1628
174	1760
174	1929
175	214
175	301
175	467
175	478
175	757
175	760
175	770
175	896
175	911
175	1418
175	1641
175	1647
175	1821
176	186
176	268
176	540
176	706
176	866
176	1134
176	1886
176	1923
177	213
177	444
177	586
177	723
177	1710
177	1747
178	200
178	252
178	602
178	703
178	1062
178	1663
178	1726
179	345
179	616
179	934
179	1332
179	1487
180	227
180	282
180	362
180	476
180	593
180	608
180	695
180	900
180	1424
180	1620
180	1993
181	454
181	535
181	684
181	1308
182	597
182	746
182	835
182	915
182	950
182	1193
182	1277
182	1492
182	1786
183	236
183	458
183	575
183	625
183	664
183	953
183	1411
184	278
184	706
184	836
184	1540
185	278
185	305
185	384
185	482
185	558
185	725
185	750
185	825
185	831
185	999
185	1558
185	1723
186	383
186	488
186	548
186	657
186	870
186	887
186	1354
186	1462
186	1517
186	1915
187	453
187	613
187	640
187	700
187	701
187	928
187	1778
188	224
188	425
188	507
188	619
188	653
188	977
188	1278
188	1888
188	1969
189	266
189	433
189	504
189	795
189	970
189	1090
189	1188
189	1873
189	1894
189	1914
190	292
190	436
190	469
190	668
190	828
190	890
190	1202
191	371
191	392
191	462
191	621
191	624
191	625
191	689
191	979
191	1581
192	220
192	431
192	486
192	659
192	707
192	1603
193	374
193	457
193	571
193	615
193	625
193	671
193	799
193	834
193	921
193	956
193	1056
193	1119
193	1158
193	1234
194	343
194	685
194	1877
195	300
195	472
195	505
195	507
195	887
195	1271
195	1340
196	289
196	296
196	297
196	386
196	456
196	736
197	390
197	531
197	595
197	614
197	810
197	1063
197	1414
198	396
198	418
198	760
198	791
198	874
198	1140
198	1358
198	1624
198	1962
199	233
199	456
199	475
199	614
199	805
199	867
199	973
199	1016
199	1057
199	1121
199	1730
199	1740
199	1763
200	254
200	282
200	295
200	532
200	801
200	1000
200	1596
200	1622
201	302
201	775
201	1073
201	1638
201	1643
201	1791
202	417
202	576
202	1192
202	1610
202	1749
202	1804
202	1837
203	252
203	341
203	535
203	634
203	689
203	930
203	1084
203	1144
204	280
204	530
204	674
204	814
204	820
204	833
205	225
205	550
205	552
205	597
205	805
205	994
206	424
206	658
206	659
206	814
206	876
206	1098
206	1100
206	1888
206	1965
207	259
207	306
207	512
207	695
207	733
207	736
207	1974
208	316
208	396
208	514
208	518
208	606
208	706
208	780
208	961
208	1347
208	1390
208	1411
208	1685
209	224
209	262
209	264
209	392
209	426
209	652
209	689
209	836
209	1344
209	1379
209	1859
210	419
210	525
210	731
210	874
210	1468
211	246
211	372
211	707
211	735
211	842
211	883
211	936
211	1108
211	1347
211	1408
211	1709
212	531
212	832
212	873
212	881
212	982
212	1859
213	348
213	599
213	699
213	710
213	754
213	1438
213	1492
214	498
214	544
214	738
214	755
214	770
214	854
214	856
214	969
214	1328
215	342
215	435
215	539
215	601
215	607
215	881
215	1191
215	1551
216	257
216	336
216	1208
216	1260
216	1809
217	402
217	415
217	859
218	296
218	399
218	717
218	852
218	1148
218	1626
218	1693
219	350
219	362
219	469
219	981
219	1420
219	1801
219	1871
220	223
220	433
220	438
220	611
220	723
220	892
220	985
220	1124
220	1381
220	1696
220	1764
221	230
221	414
221	467
221	514
221	763
221	1154
221	1254
221	1842
222	308
222	485
222	532
222	662
222	668
222	672
222	673
222	675
222	1041
222	1364
222	1775
223	254
223	605
223	767
223	813
223	1156
223	1228
223	1329
224	363
224	434
224	443
224	611
224	877
224	1186
224	1389
224	1512
224	1670
225	338
225	379
225	405
225	592
225	616
225	629
225	976
225	979
225	990
225	1104
225	1164
225	1553
225	1715
226	278
226	374
226	522
226	753
226	1788
227	303
227	319
227	329
227	341
227	349
227	497
227	509
227	660
227	1155
227	1802
228	241
228	273
228	421
228	626
228	1219
228	1336
228	1684
228	1996
229	409
229	461
229	469
229	963
229	999
229	1335
229	1562
229	1691
229	1832
230	438
230	439
230	533
230	581
230	590
230	659
230	740
230	755
230	791
230	793
230	845
230	878
230	969
230	1867
231	384
231	425
231	484
231	534
231	572
231	658
231	853
231	934
231	1385
231	1921
231	1929
232	372
232	499
232	713
232	729
232	1460
233	314
233	764
233	803
233	810
233	832
233	1118
233	1336
233	1950
234	240
234	456
234	562
234	580
234	613
234	627
234	711
234	744
234	861
234	1059
234	1263
234	1431
234	1950
235	499
235	515
235	609
235	862
235	872
235	1148
235	1330
235	1510
235	1536
235	1554
235	1634
236	406
236	1074
236	1284
236	1452
236	1639
237	274
237	380
237	478
237	677
237	749
238	328
238	464
238	647
238	1027
238	1073
238	1256
238	1291
239	329
239	340
239	413
239	451
239	556
239	831
239	851
239	994
239	998
239	1706
240	476
240	818
240	900
240	1087
240	1315
240	1658
240	1918
241	582
241	660
241	715
241	763
241	872
242	372
242	663
242	717
242	964
242	1578
242	1689
242	1954
243	450
243	752
243	931
243	976
243	985
244	268
244	329
244	413
244	819
244	1043
244	1087
244	1220
244	1477
244	1734
244	1847
245	249
245	372
245	584
245	592
245	693
245	901
245	1182
245	1247
245	1546
245	1776
246	263
246	280
246	352
246	416
246	579
246	721
246	919
246	1271
246	1559
246	1907
247	367
247	551
247	674
247	681
247	904
247	1014
247	1662
247	1996
248	254
248	559
248	575
248	851
248	1113
248	1141
248	1146
248	1311
248	1607
248	1758
249	284
249	379
249	621
249	691
249	859
249	1417
249	1669
249	1744
249	1846
249	1851
249	1922
250	381
250	403
250	532
250	546
250	674
250	740
250	825
250	923
250	1498
250	1679
250	1812
250	1935
251	366
251	370
251	446
251	748
251	791
251	879
251	976
251	1156
251	1855
252	471
252	840
252	1687
252	1784
253	401
253	431
253	436
253	472
253	518
253	547
253	650
253	663
253	801
253	1160
253	1625
254	297
254	485
254	573
254	585
254	627
254	629
254	761
254	877
254	885
254	977
254	1150
254	1615
254	1798
255	258
255	271
255	478
255	650
255	778
255	785
255	917
255	969
255	1247
255	1291
256	301
256	433
256	606
256	739
256	767
256	940
256	982
256	1032
256	1218
256	1749
257	301
257	428
257	613
257	648
257	920
257	1010
257	1329
257	1677
257	1909
258	758
258	1053
258	1764
259	285
259	381
259	546
259	970
259	1003
259	1468
259	1842
260	531
260	533
260	704
260	845
260	915
260	948
260	1074
260	1267
260	1628
260	1705
261	389
261	409
261	685
261	697
261	865
261	1201
261	1660
262	574
262	911
262	1040
262	1557
262	1754
262	1853
263	325
263	332
263	352
263	535
263	1110
263	1678
264	291
264	499
264	1898
264	1919
265	326
265	384
265	414
265	526
265	591
265	666
265	777
265	1353
265	1873
266	287
266	305
266	316
266	707
266	1357
266	1979
267	378
267	526
267	600
267	872
267	963
267	991
267	1043
267	1281
267	1708
267	1771
268	352
268	506
268	537
268	777
268	968
269	596
269	597
269	948
269	1267
269	1852
270	432
270	766
270	915
270	932
270	1114
270	1306
270	1476
271	571
271	572
271	600
271	689
271	743
271	998
271	1225
271	1643
272	371
272	455
272	605
272	825
272	827
272	885
272	1508
272	1848
272	1859
273	283
273	316
273	353
273	358
273	423
273	746
273	862
274	399
274	494
274	534
274	708
274	770
274	793
274	846
274	982
274	1480
274	1599
275	393
275	473
275	520
275	647
275	742
275	755
275	892
275	1207
275	1913
276	377
276	378
276	705
276	709
276	794
276	1771
277	340
277	534
277	565
277	711
277	748
277	839
277	872
277	911
277	917
277	1605
277	1694
277	1817
278	557
278	820
278	826
278	989
278	1198
278	1464
279	467
279	473
279	486
279	494
279	621
279	722
279	742
279	772
279	795
279	801
279	1031
279	1064
279	1502
279	1760
280	293
280	346
280	620
280	639
280	667
280	673
280	714
280	722
280	1454
280	1587
281	301
281	539
281	645
282	318
282	321
282	589
282	659
282	674
282	874
282	962
282	1927
283	284
283	674
283	686
283	740
283	1442
283	1776
283	1871
284	559
284	652
284	777
284	870
284	1732
285	346
285	504
285	598
285	704
285	724
285	962
286	386
286	402
286	430
286	452
286	673
286	792
286	973
286	1760
286	1911
286	1912
287	296
287	333
287	608
287	668
287	897
287	1624
287	1763
287	1970
288	332
288	337
288	366
288	372
288	387
288	647
288	688
288	690
288	719
288	873
288	896
288	960
288	1019
288	1111
288	1171
288	1204
288	1503
288	1641
289	334
289	475
289	514
289	561
289	605
289	641
289	695
289	808
289	958
290	481
290	561
290	954
290	1452
290	1474
290	1505
290	1713
290	1877
291	297
291	492
291	498
291	569
291	643
291	861
291	908
291	910
291	930
291	1420
291	1427
291	1927
292	377
292	389
292	450
292	453
292	645
292	731
292	772
292	820
292	1925
293	355
293	433
293	494
293	543
293	1036
293	1315
293	1774
293	1962
294	400
294	440
294	490
294	703
294	855
294	1263
294	1334
295	377
295	873
295	925
295	991
295	1305
295	1432
295	1802
295	1851
296	401
296	600
296	605
296	781
296	1199
296	1577
297	305
297	330
297	535
297	581
297	617
297	778
297	790
297	925
297	1843
297	1921
298	427
298	511
298	629
298	901
298	942
298	1272
298	1733
299	601
299	674
299	702
299	983
299	1645
299	1726
300	303
300	344
300	424
300	463
300	565
300	699
300	724
300	777
300	805
300	824
300	835
300	960
300	1230
301	360
301	540
301	595
301	620
301	708
301	1382
302	333
302	484
302	776
302	831
303	451
303	608
303	848
303	932
303	1592
303	1703
304	326
304	539
304	655
304	969
304	1400
304	1559
304	1915
305	320
305	571
305	594
305	598
305	655
305	720
305	747
305	928
305	980
305	1115
305	1835
306	513
306	519
306	559
306	575
306	691
306	790
306	823
306	840
306	886
306	966
306	975
306	1069
306	1164
306	1313
306	1917
307	685
307	804
307	813
307	829
307	1567
308	707
308	749
308	897
308	1264
308	1620
309	833
309	943
309	965
309	1561
309	1670
310	313
310	591
310	778
310	878
310	1051
311	473
311	568
311	882
311	958
311	1129
311	1145
312	382
312	516
312	529
312	607
312	671
312	690
312	733
312	852
312	879
312	897
312	918
312	1417
312	1540
312	1967
313	472
313	626
313	725
313	822
313	908
313	955
313	975
313	1528
313	1659
314	575
314	720
314	791
314	1507
314	1607
315	411
315	480
315	524
315	699
315	1298
315	1477
315	1742
316	677
316	982
316	1032
316	1621
317	784
317	820
317	916
317	1685
317	1841
318	414
318	536
318	777
318	965
318	1710
319	397
319	438
319	590
319	638
319	764
319	768
319	803
319	814
319	856
319	945
320	449
320	520
320	529
320	663
320	718
320	742
320	810
320	886
320	1095
320	1929
321	557
321	621
321	654
321	932
321	1231
321	1445
321	1905
321	1931
322	669
322	1649
323	479
323	669
323	684
323	1373
324	389
324	456
324	783
324	860
324	943
324	1216
324	1505
324	1637
325	389
325	416
325	504
325	538
325	680
325	780
325	793
325	895
325	969
325	1134
325	1283
325	1398
325	1947
326	432
326	524
326	699
326	702
326	746
326	764
326	787
326	1734
327	391
327	452
327	496
327	629
327	753
327	824
327	893
327	1139
327	1651
328	518
328	555
328	635
328	640
328	711
328	1378
329	390
329	591
329	620
329	653
329	818
329	861
329	900
329	922
329	1963
330	449
330	576
330	737
330	819
330	908
330	911
330	913
330	1456
330	1951
331	343
331	442
331	828
331	877
331	952
331	976
331	1255
331	1314
331	1797
331	1865
332	706
332	878
332	1183
332	1865
333	346
333	399
333	937
333	951
333	1352
333	1855
333	1966
334	765
334	771
334	915
334	1420
334	1711
334	1750
334	1995
335	1082
335	1096
335	1517
336	565
336	796
336	927
336	944
336	1359
337	396
337	404
337	571
337	593
337	598
337	630
337	673
337	735
337	1202
337	1354
337	1649
337	1652
337	1899
337	1929
338	648
338	747
338	813
338	979
338	1140
338	1383
338	1548
338	1562
339	349
339	569
339	626
339	738
339	1040
339	1678
340	366
340	502
340	812
340	1336
341	534
341	756
341	1077
341	1176
341	1569
342	398
342	445
342	467
342	590
342	620
342	759
342	868
342	972
342	1385
342	1477
342	1872
343	366
343	467
343	1308
343	1342
344	549
344	566
344	693
344	902
344	984
344	1106
344	1200
344	1295
344	1452
344	1584
344	1676
344	1917
345	353
345	797
345	846
345	1515
345	1674
346	437
346	571
346	655
346	768
346	960
346	1195
346	1764
347	561
347	850
347	1421
347	1668
348	362
348	379
348	505
348	711
348	745
348	936
348	1018
348	1020
348	1192
348	1654
349	436
349	580
349	756
349	925
349	979
349	982
349	1184
349	1299
349	1316
349	1548
350	557
350	623
350	708
350	828
350	890
350	934
350	1554
351	356
351	363
351	453
351	481
351	486
351	585
351	724
351	902
351	958
351	1560
352	459
352	623
352	708
352	864
352	1017
352	1040
352	1109
352	1168
352	1565
352	1582
352	1620
353	359
353	532
353	547
353	633
353	754
353	936
353	969
354	390
354	595
354	720
354	816
354	876
354	972
354	1299
354	1759
355	580
355	667
355	736
355	799
355	929
355	1328
355	1487
355	1705
355	1712
356	685
356	801
356	912
356	1911
356	1912
357	692
357	701
357	832
357	939
357	986
357	1260
357	1821
358	426
358	445
358	752
358	785
358	831
358	863
358	998
358	1043
358	1131
358	1448
358	1543
358	1866
359	362
359	387
359	627
359	775
359	837
359	926
359	928
359	1170
359	1268
360	574
360	938
360	1468
360	1749
360	1946
361	389
361	500
361	539
361	734
361	840
361	846
362	566
363	372
363	387
363	553
363	566
363	680
363	795
363	885
363	1466
364	432
364	632
364	643
364	886
364	989
364	1056
364	1644
364	1782
365	369
365	769
365	1072
365	1694
366	562
366	593
366	646
366	993
366	1148
367	387
367	438
367	448
367	555
367	666
367	1287
367	1602
368	390
368	497
368	504
368	936
368	1867
369	462
369	860
369	1943
370	502
370	642
370	861
370	887
370	945
370	1170
370	1937
371	411
371	419
371	560
371	645
371	650
371	652
371	737
371	1671
371	1975
372	699
372	724
372	934
372	946
372	1466
372	1969
373	644
373	793
373	804
373	855
373	1232
373	1687
373	1745
373	1987
374	501
374	614
374	964
375	628
375	633
375	1099
375	1316
375	1366
375	1485
375	1831
375	1965
376	562
376	868
376	1224
376	1628
376	1664
376	1783
377	506
377	913
377	920
377	1028
377	1665
378	526
378	541
378	553
378	642
378	755
378	1088
378	1102
378	1129
379	411
379	447
379	467
379	506
379	581
379	598
379	605
379	636
379	765
379	860
380	1548
380	1610
380	1744
380	1936
381	434
381	744
381	756
381	1356
382	406
382	428
382	642
382	1190
382	1231
382	1518
383	892
383	951
384	699
384	704
384	809
385	411
385	580
385	596
385	659
385	925
385	961
385	1237
385	1787
385	1976
386	409
386	559
386	649
386	870
386	913
386	1239
386	1298
386	1542
387	621
387	799
387	938
387	1448
387	1464
387	1860
387	1894
388	397
388	481
388	588
388	677
388	705
388	733
388	1109
388	1231
388	1563
388	1623
388	1920
389	789
390	609
390	650
390	856
390	894
391	754
391	837
391	838
391	879
391	1017
391	1202
391	1510
391	1614
391	1852
392	421
392	466
392	580
392	622
392	742
392	785
392	838
392	1020
392	1805
393	613
393	764
393	1270
394	659
394	689
394	692
394	728
394	1450
395	595
395	835
395	980
395	1239
396	559
396	612
396	707
396	720
396	1545
397	726
397	728
397	778
397	947
397	1037
397	1193
397	1698
397	1890
398	431
398	543
398	575
398	759
398	888
398	1520
398	1903
398	1991
399	543
399	988
399	1333
399	1346
399	1498
399	1822
399	1858
400	419
400	940
400	999
400	1220
400	1644
400	1993
401	482
401	534
401	852
401	898
401	1276
402	553
402	558
402	653
402	905
402	1741
402	1923
403	796
403	978
403	1343
403	1570
403	1667
404	460
404	556
404	629
404	631
404	880
404	1100
404	1307
404	1463
404	1862
405	447
405	624
405	846
405	971
405	1991
406	964
406	980
406	1624
407	465
407	500
407	518
407	1366
407	1786
407	1926
408	789
408	915
408	962
408	1221
408	1670
409	614
409	766
409	807
409	1346
409	1382
409	1527
409	1773
410	604
410	730
410	761
410	842
410	927
410	1363
410	1770
410	1797
410	1881
411	646
411	665
411	710
411	843
411	916
411	1096
411	1300
411	1310
411	1356
411	1660
411	1761
412	417
412	447
412	752
412	843
412	951
412	1101
412	1193
412	1228
412	1894
413	457
413	488
413	508
413	524
413	557
413	659
413	903
413	1326
413	1447
413	1987
414	656
414	795
414	874
414	905
414	911
414	963
414	1030
414	1141
414	1664
415	424
415	437
415	558
415	567
415	579
415	608
415	793
415	845
415	924
415	994
415	1064
415	1322
416	618
416	707
416	900
416	1248
416	1439
416	1802
416	1978
417	561
417	641
417	891
417	1660
418	1293
418	1374
418	1744
418	1876
419	498
419	634
419	829
419	1048
419	1063
419	1475
420	432
420	553
420	774
420	860
420	988
420	1033
420	1579
421	432
421	457
421	495
421	707
421	881
421	1084
421	1334
421	1480
421	1643
422	531
422	542
422	583
422	694
422	772
422	832
422	874
422	968
422	986
422	1009
422	1280
422	1319
422	1645
423	606
423	609
423	820
423	871
424	681
424	777
424	979
424	1241
425	944
425	1255
426	687
426	901
426	951
426	988
427	490
427	631
427	832
427	853
427	956
427	1006
427	1143
427	1320
428	516
428	636
428	823
428	994
428	1686
429	511
429	665
429	714
429	763
429	779
429	900
429	912
429	1128
429	1491
429	1493
429	1572
430	466
430	679
430	924
430	939
430	990
431	458
431	541
431	632
431	648
431	701
431	820
431	1726
431	1827
432	598
432	878
432	1896
432	1952
433	636
433	730
433	743
433	946
433	1058
433	1371
433	1477
434	483
434	569
434	650
434	781
434	905
434	910
434	1558
434	1614
435	731
435	914
435	984
436	890
436	1250
436	1444
436	1579
437	602
437	850
437	1569
437	1595
437	1680
438	522
438	604
438	679
438	682
438	748
438	827
438	864
438	1852
438	1854
439	457
439	946
439	953
439	1044
439	1491
440	558
440	583
440	623
440	662
440	1141
440	1437
441	608
441	628
441	889
441	1532
441	1644
442	628
442	693
442	741
442	759
442	823
442	867
442	931
442	1224
442	1249
442	1435
442	1843
443	506
443	529
443	632
443	726
443	887
443	1289
443	1582
444	604
444	639
444	702
444	1309
444	1371
444	1453
444	1557
444	1707
445	461
445	621
445	662
445	1292
445	1294
445	1689
445	1741
445	1891
446	687
446	702
446	978
446	1445
446	1682
446	1853
447	466
447	512
447	611
447	834
447	1445
447	1511
448	691
448	873
448	1459
448	1539
448	1736
448	1767
448	1923
449	567
449	605
449	731
449	764
449	856
449	1078
449	1415
449	1640
449	1974
450	452
450	580
450	805
450	856
451	697
451	710
451	765
451	776
452	539
452	613
452	742
452	899
452	1232
453	474
453	578
453	843
453	1005
453	1257
453	1304
453	1329
453	1757
453	1770
453	1797
453	1935
454	461
454	483
454	546
454	608
454	633
454	861
454	871
454	1278
455	655
455	749
455	819
456	564
456	768
456	825
456	842
456	927
456	1543
456	1565
457	909
457	993
457	999
457	1020
457	1871
458	629
458	689
458	754
458	760
458	833
458	847
458	1079
458	1404
458	1466
459	905
459	1066
459	1190
459	1216
459	1611
459	1622
459	1933
460	521
460	606
460	623
460	717
460	967
460	1598
460	1710
460	1847
461	587
461	679
461	684
461	794
461	830
461	1172
461	1504
461	1524
461	1851
462	513
462	599
462	843
462	1545
462	1645
463	652
463	1744
463	1995
464	559
464	693
464	741
464	796
464	913
464	952
464	962
464	1550
464	1598
464	1600
464	1607
464	1878
464	1936
464	1977
465	524
465	541
465	690
465	738
465	1832
466	521
466	592
466	598
466	618
466	722
466	796
466	904
466	947
467	529
467	691
467	735
467	1770
468	579
468	592
468	672
468	704
468	812
468	1219
468	1662
468	1715
469	547
469	646
469	911
469	926
469	1689
469	1729
469	1964
470	499
470	603
470	753
470	768
470	885
470	892
470	1092
470	1697
471	532
471	605
471	827
471	988
471	1076
471	1254
471	1887
472	601
472	609
472	700
472	1398
472	1927
473	516
473	556
473	599
473	644
473	965
473	1034
473	1598
473	1871
474	547
474	868
474	984
474	1262
474	1982
475	650
475	677
475	700
475	778
475	996
475	1102
475	1962
476	531
476	834
476	837
476	1305
476	1485
477	631
477	657
477	918
477	1240
477	1243
477	1872
478	764
478	787
478	931
478	987
478	1589
478	1710
479	541
479	709
479	1144
479	1251
479	1836
480	616
480	851
480	880
480	901
480	923
480	935
480	1190
480	1648
481	676
481	1160
481	1709
481	1989
482	505
482	593
482	604
482	683
482	713
482	1252
482	1484
482	1583
483	568
483	743
483	842
483	860
483	1787
484	650
484	720
484	826
484	950
484	1284
484	1356
484	1809
485	986
485	1371
485	1548
486	496
486	979
486	1106
486	1320
486	1550
486	1874
486	1992
487	569
487	684
487	757
487	817
487	942
487	1167
487	1396
487	1481
487	1706
488	913
488	1046
488	1147
488	1874
489	528
489	611
489	862
489	953
489	1191
489	1474
489	1642
489	1697
490	615
490	670
490	951
490	1171
490	1464
490	1533
490	1819
491	508
491	615
491	662
491	904
491	1053
492	509
492	730
492	749
492	826
492	859
492	860
492	917
492	984
493	634
493	947
493	992
493	1359
493	1474
494	575
494	638
494	819
494	1633
494	1670
495	759
495	824
495	925
495	967
495	982
495	1184
495	1265
495	1882
495	1977
496	836
496	858
496	891
496	1453
497	530
497	701
497	799
497	865
497	1174
497	1374
497	1818
498	628
498	658
498	793
498	914
498	964
498	998
498	1042
498	1266
498	1298
498	1586
498	1783
498	1861
499	637
499	770
499	835
499	1295
499	1527
499	1603
500	674
500	677
500	702
500	731
500	919
500	1035
500	1694
501	575
501	623
501	1165
501	1882
502	596
502	929
502	1232
502	1751
503	624
503	918
503	1886
504	839
504	846
504	890
504	1039
504	1514
504	1562
505	507
505	512
505	820
505	984
506	1785
507	992
507	1176
508	600
508	607
508	667
508	721
508	1102
509	535
509	547
509	596
509	628
509	641
509	981
509	1101
509	1844
510	531
510	533
510	535
510	785
510	844
510	855
510	1155
511	613
511	674
511	709
511	816
511	876
511	890
512	575
512	655
512	710
512	884
512	1867
513	604
513	678
513	717
513	753
513	798
513	1886
514	543
514	652
514	926
514	1842
515	817
515	998
515	1835
516	699
516	725
516	970
516	1978
517	580
517	643
517	739
517	1334
517	1956
518	746
518	949
518	1092
518	1144
518	1710
519	582
519	606
519	699
519	727
519	746
519	1330
519	1805
520	539
520	573
520	689
520	833
520	889
520	915
520	1073
520	1286
520	1502
521	687
521	691
521	739
521	993
521	1169
521	1650
521	1818
521	1877
522	541
522	903
522	1317
523	680
523	915
523	924
523	990
523	1160
523	1682
523	1918
524	757
524	791
524	795
524	859
524	864
524	983
524	1191
524	1423
525	605
525	681
525	749
525	763
525	1659
525	1727
526	728
526	805
526	1111
526	1816
527	534
527	643
527	765
527	896
527	1069
528	557
528	559
528	864
528	1242
529	583
529	672
529	701
529	894
529	918
529	996
529	1582
529	1959
530	629
530	677
530	888
530	994
530	1022
530	1178
531	534
531	545
531	644
531	930
531	1334
531	1576
531	1586
531	1773
531	1943
532	758
532	797
532	1017
532	1704
533	579
533	712
533	863
533	1145
534	581
534	679
534	725
534	801
534	885
534	917
535	1168
535	1177
535	1537
535	1685
536	645
536	671
536	953
536	1497
536	1690
536	1871
537	724
537	852
537	1018
538	598
538	648
538	925
538	1805
538	1976
540	554
540	651
540	1013
540	1355
541	685
541	694
541	911
541	944
541	987
541	1601
542	572
542	600
542	631
542	924
542	1079
542	1337
542	1863
543	672
543	725
543	785
543	841
543	854
543	1508
543	1707
543	1753
543	1812
544	595
544	635
544	852
544	875
544	1150
544	1992
545	686
545	740
545	799
545	852
545	905
545	911
545	956
546	678
546	795
546	1428
547	587
547	671
547	778
547	811
547	926
547	1016
547	1187
547	1565
548	801
548	940
548	945
548	1320
548	1406
549	598
549	599
549	603
549	696
549	997
549	1365
549	1871
550	814
550	996
550	1381
550	1744
551	560
551	614
551	715
551	746
551	808
551	824
551	910
551	937
551	1190
551	1361
551	1470
551	1485
551	1556
552	584
552	643
552	677
552	762
552	783
552	784
552	905
552	958
552	1197
552	1585
553	568
553	589
553	809
553	812
553	846
553	1594
553	1707
553	1779
554	620
554	728
554	747
554	890
554	916
555	568
555	669
555	813
555	927
555	1987
556	960
557	592
557	621
557	1296
557	1604
558	620
558	663
558	863
558	965
558	1899
559	648
559	979
559	1953
560	621
560	632
560	673
560	705
560	770
560	776
560	841
560	968
560	1043
561	652
561	786
561	967
561	1132
561	1210
562	741
562	837
562	844
562	858
562	976
562	1024
562	1053
562	1875
563	621
563	1020
564	784
564	804
564	817
564	826
564	876
564	968
564	1012
564	1134
564	1196
565	601
565	915
565	1436
565	1446
565	1802
566	600
566	717
566	729
566	886
566	967
566	1418
567	599
567	1082
567	1645
568	823
568	944
569	644
569	691
569	699
569	840
569	1440
569	1730
570	588
570	770
570	983
570	998
570	1238
570	1421
571	763
571	905
571	962
572	753
572	769
572	817
572	877
572	1332
572	1659
572	1737
572	1915
572	1925
573	703
573	887
573	1504
573	1535
574	976
574	1267
574	1350
574	1494
574	1769
575	940
575	1188
575	1260
575	1424
575	1530
575	1895
576	876
576	1054
577	797
577	1298
577	1394
577	1530
577	1722
577	1776
578	795
578	853
578	876
578	905
578	912
578	1043
578	1298
578	1537
579	783
579	940
579	986
579	1083
579	1268
580	716
580	870
580	1010
581	832
581	1755
581	1835
582	593
582	775
582	810
582	906
582	996
582	1759
583	655
583	702
583	778
583	796
583	801
583	887
584	823
584	1493
584	1726
584	1793
584	1922
585	662
585	736
585	789
585	825
585	886
585	1057
585	1280
586	763
586	1479
586	1556
586	1693
587	788
587	1433
587	1506
587	1529
587	1825
588	619
588	652
588	964
588	1109
588	1164
588	1862
589	616
589	675
589	728
589	897
589	1816
590	609
590	763
590	782
590	1298
591	869
591	1685
592	864
592	1520
593	643
593	690
593	738
593	1110
593	1237
593	1405
593	1800
593	1905
594	1533
594	1663
594	1701
595	692
595	716
595	917
595	946
595	1013
595	1069
595	1198
596	687
596	924
596	978
596	1146
596	1640
597	695
597	860
597	1056
597	1787
597	1899
598	630
598	746
598	757
598	795
598	834
598	1927
599	715
599	737
599	813
599	893
599	1066
599	1163
599	1496
599	1587
600	635
600	797
600	894
600	1022
600	1100
600	1571
601	612
601	628
601	689
601	768
601	831
601	924
601	951
601	1737
601	1755
601	1810
601	1924
602	671
602	700
602	832
602	1916
603	669
603	1734
603	1866
603	1931
604	827
604	883
604	942
604	956
604	1055
604	1134
604	1285
605	657
605	665
605	683
605	851
605	1067
605	1070
606	622
606	767
606	777
606	888
606	968
606	998
606	1031
606	1458
606	1485
607	838
607	906
607	949
607	1455
608	615
608	650
608	704
608	750
608	762
608	1614
609	725
609	727
609	839
609	923
609	1025
609	1114
609	1627
609	1879
610	812
610	1542
611	823
611	936
611	998
611	1390
612	625
612	705
612	882
612	1066
612	1391
612	1933
613	800
613	825
613	894
613	1095
613	1219
613	1550
613	1594
614	831
614	1029
614	1655
615	671
615	737
615	960
615	972
615	1620
615	1673
616	626
616	728
616	898
616	910
616	1392
617	647
617	703
617	737
617	768
617	1645
618	624
618	688
618	758
618	913
618	1637
619	1846
619	1857
620	754
620	1430
620	1492
620	1672
620	1970
621	872
621	1677
622	659
622	736
622	816
622	1417
622	1429
622	1536
622	1614
622	1690
623	643
623	723
623	800
623	1381
623	1481
623	1784
624	645
624	1065
624	1605
624	1816
624	1959
625	631
625	655
625	703
625	812
625	933
625	1217
625	1236
625	1349
626	871
626	902
626	931
626	1164
626	1864
626	1895
627	811
627	1383
627	1931
628	697
628	1089
628	1622
628	1657
629	837
629	1602
630	717
630	834
630	869
630	1077
630	1385
630	1392
630	1869
631	821
631	987
631	1286
631	1327
631	1420
631	1883
632	741
632	766
632	775
632	1348
632	1611
633	740
633	768
633	1229
633	1365
633	1443
634	728
634	763
634	791
634	841
634	859
634	913
634	1305
634	1673
634	1909
635	767
635	836
635	1719
635	1927
636	1259
636	1309
636	1694
636	1742
637	714
637	717
637	947
637	956
637	1708
637	1911
638	937
638	985
639	801
639	889
639	987
639	1017
639	1608
639	1856
640	859
640	908
640	1287
640	1618
640	1718
640	1998
641	651
641	702
641	983
641	999
641	1710
642	666
642	739
642	800
642	882
642	937
642	1264
642	1979
643	1239
643	1345
644	932
644	1798
645	1405
645	1850
645	1921
646	1464
647	662
647	678
647	718
647	757
647	769
647	773
647	955
647	1243
647	1432
647	1615
647	1826
648	695
648	716
648	751
648	818
648	940
648	965
648	988
648	1179
648	1461
649	891
649	896
649	1705
649	1955
649	1983
650	870
650	889
650	913
650	1030
650	1099
650	1850
651	696
651	740
651	914
651	1555
652	737
652	969
652	1201
653	706
653	739
653	751
653	811
653	900
653	985
653	989
653	1897
653	1920
654	758
654	831
654	1400
654	1405
654	1585
655	980
656	787
656	927
656	959
656	1354
657	787
657	846
657	939
657	1266
657	1819
658	830
658	1152
658	1220
658	1245
658	1489
658	1767
659	763
659	809
659	929
659	1013
659	1242
659	1266
659	1299
659	1566
660	754
660	782
660	963
660	1054
660	1873
661	701
661	1584
661	1593
662	714
662	894
662	903
662	942
662	944
662	1324
662	1647
662	1867
662	1984
663	695
663	736
663	946
663	1051
663	1433
663	1619
663	1780
663	1840
664	680
664	744
664	962
664	1343
664	1461
664	1727
665	776
665	848
665	1764
666	953
666	1049
666	1771
666	1870
666	1996
667	671
667	838
667	844
667	1255
667	1857
667	1937
667	1939
668	801
668	805
668	818
668	923
668	966
668	1002
668	1341
668	1600
668	1924
669	727
669	1442
669	1486
670	687
670	904
670	1485
670	1592
670	1808
671	713
671	793
671	830
671	1203
672	912
672	1169
672	1449
672	1462
672	1932
673	974
674	782
674	858
674	1382
675	844
675	906
675	928
675	1092
675	1099
675	1418
675	1730
676	697
676	815
676	1644
677	696
677	775
677	832
677	874
677	1151
677	1343
677	1553
678	725
678	1276
678	1414
678	1514
679	913
679	1822
680	892
680	937
680	1260
680	1312
680	1406
680	1729
681	868
681	1429
681	1695
681	1819
681	1943
682	930
682	952
682	985
682	1293
682	1575
683	733
683	839
684	904
684	1463
684	1724
684	1957
685	746
685	837
685	1382
685	1928
685	1986
686	796
686	868
687	790
687	918
687	937
687	997
689	733
689	827
689	831
689	921
690	708
690	888
690	972
690	1025
690	1511
690	1846
690	1870
691	963
691	1112
691	1194
691	1304
692	933
692	940
692	1232
692	1465
692	1755
693	772
693	986
693	1777
693	1941
694	713
694	760
694	986
694	1066
694	1775
695	762
695	892
695	949
695	1034
695	1037
695	1172
695	1225
695	1754
696	730
696	760
696	850
696	983
696	1582
696	1674
697	863
697	883
697	944
697	1244
698	805
698	875
698	946
698	1319
698	1736
699	884
699	928
699	954
699	1207
699	1250
699	1765
700	867
700	1130
701	768
701	887
701	1337
701	1601
702	732
702	937
702	1326
703	722
703	747
703	947
703	1702
704	742
704	1255
704	1330
705	754
705	887
705	1367
705	1512
706	808
706	942
706	1772
707	852
707	867
707	913
707	1017
707	1697
708	747
708	897
708	1035
708	1534
709	710
709	1684
710	783
710	854
710	1067
710	1317
710	1703
710	1810
710	1997
711	1370
712	732
712	1679
712	1811
713	1274
713	1412
713	1914
713	1989
714	954
714	1824
715	785
715	890
715	1058
715	1139
715	1984
716	737
716	752
716	1021
716	1311
716	1401
716	1454
716	1537
717	724
717	876
717	1073
717	1315
717	1701
718	757
718	816
718	817
718	1086
718	1630
718	1908
719	754
719	988
720	839
720	1315
720	1737
721	759
721	779
722	813
722	876
722	1347
722	1536
723	728
723	797
723	936
723	983
723	1196
723	1828
724	815
724	1015
724	1081
724	1319
724	1358
724	1713
725	783
725	876
725	1518
725	1589
725	1605
726	846
726	866
726	917
726	929
726	939
726	1061
726	1574
727	802
727	854
727	926
727	936
727	1252
727	1450
727	1952
728	784
728	804
728	939
728	976
728	1238
729	757
729	1729
730	836
730	883
730	980
730	994
730	1410
731	748
731	786
731	1279
732	864
732	889
732	1078
732	1272
732	1852
733	756
733	783
733	820
733	924
733	1255
733	1265
733	1307
733	1682
734	836
734	993
735	864
735	1089
735	1341
735	1430
736	936
736	1025
736	1093
736	1735
737	961
737	1454
737	1584
737	1701
737	1811
737	1832
737	1893
738	855
738	1786
739	775
739	809
739	919
739	929
739	1972
740	775
740	1323
740	1865
740	1943
741	835
741	859
741	1225
741	1248
742	772
742	791
742	919
742	922
742	941
742	1676
742	1732
743	956
743	1086
743	1831
743	1934
744	883
744	919
744	931
744	1045
744	1605
744	1937
744	1992
745	787
745	818
745	858
745	905
745	983
745	1334
746	771
746	888
746	1003
746	1043
746	1529
747	895
747	910
748	752
748	773
748	819
748	872
748	1126
748	1132
748	1857
749	797
749	1125
749	1501
750	852
750	956
750	977
750	1181
750	1953
751	766
751	907
751	1394
751	1826
752	798
752	992
752	1115
752	1232
753	761
753	767
753	832
753	1031
754	756
754	914
754	1275
754	1457
754	1568
754	1859
754	1947
756	819
756	870
756	938
756	972
756	997
756	1119
756	1280
756	1411
756	1544
756	1657
756	1708
757	891
757	964
757	1470
757	1567
757	1989
758	1061
759	860
759	976
759	1016
759	1169
759	1638
760	921
760	1115
760	1324
761	915
761	1597
761	1701
762	777
762	794
762	801
762	1247
762	1409
762	1605
762	1660
763	822
763	984
763	1332
763	1621
764	886
764	949
764	955
764	1932
765	1240
765	1402
765	1837
766	839
766	850
766	895
766	960
766	1934
767	862
767	1074
767	1185
768	860
768	916
768	930
768	1082
768	1308
768	1389
769	1285
769	1385
769	1840
769	1961
770	814
770	925
770	1172
770	1636
770	1680
771	781
771	802
771	904
771	951
771	1192
771	1237
771	1364
771	1375
771	1384
772	832
772	1467
773	881
773	936
773	1116
773	1134
773	1684
774	1196
774	1701
775	850
775	1798
776	900
776	998
776	1338
776	1542
776	1997
777	781
777	823
777	1240
778	911
779	843
779	1260
779	1697
779	1998
780	805
780	944
780	1544
780	1606
780	1625
780	1938
780	1941
781	1284
782	933
782	1713
782	1886
783	954
783	1113
783	1157
783	1398
784	945
784	1084
784	1328
784	1346
784	1523
784	1615
784	1852
784	1956
785	1004
785	1052
785	1335
785	1512
785	1905
786	842
786	896
786	1576
786	1732
786	1946
787	807
787	1802
788	927
788	1714
788	1771
788	1896
789	837
789	847
789	1593
790	928
790	972
790	994
790	1416
790	1630
790	1935
791	830
791	981
791	1078
791	1257
791	1903
791	1909
792	885
792	1439
793	1882
794	846
794	962
794	975
794	1526
794	1780
795	833
795	1459
795	1851
796	894
796	1076
797	828
797	920
797	950
798	1964
799	1062
799	1275
799	1613
799	1752
800	884
800	1076
801	831
801	876
801	1152
802	1553
802	1566
802	1649
803	1188
803	1575
803	1619
803	1655
803	1936
804	863
804	959
804	1092
804	1097
804	1671
805	1787
805	1977
806	827
806	829
806	897
806	1158
807	946
807	1089
807	1502
807	1765
808	857
808	909
808	1046
808	1287
808	1733
809	952
809	963
809	1004
809	1127
809	1255
809	1605
809	1848
809	1913
811	831
811	1098
811	1759
811	1869
812	857
812	966
812	1646
813	1225
814	850
814	885
814	1194
815	862
815	914
815	934
815	1465
815	1795
816	834
816	858
816	914
817	839
817	877
818	850
818	942
818	1422
818	1978
819	843
819	1502
819	1752
819	1828
820	888
820	951
820	985
820	1284
820	1463
820	1678
820	1816
821	1914
822	1030
822	1714
823	1221
823	1546
824	890
824	942
824	1592
825	870
825	917
825	983
825	1830
825	1926
826	1640
827	909
827	933
827	1305
827	1858
828	1105
829	845
829	848
830	911
830	1046
830	1251
830	1611
830	1839
831	1223
831	1395
831	1581
832	906
832	1035
832	1196
832	1329
832	1600
832	1891
832	1925
833	1994
834	1211
834	1617
834	1901
834	1925
835	1002
835	1004
835	1820
836	947
836	1102
836	1621
836	1763
837	872
837	1130
837	1908
837	1967
838	980
838	1111
838	1240
838	1274
838	1337
839	840
839	905
839	913
839	1112
839	1562
840	893
840	1348
840	1750
841	1451
841	1519
842	913
842	914
842	990
842	1026
842	1177
842	1182
842	1952
843	908
843	911
843	936
843	1490
843	1874
843	1890
844	860
844	869
844	933
844	939
844	1247
845	852
845	1781
846	869
846	1369
846	1589
847	970
847	1289
847	1573
848	905
848	1162
848	1246
849	949
849	1112
849	1176
849	1307
849	1383
849	1797
850	866
850	887
850	1729
851	883
851	1476
851	1757
852	1023
852	1255
852	1599
853	1257
854	918
854	963
854	1308
854	1406
854	1582
854	1633
855	1060
855	1099
855	1426
855	1605
855	1824
856	1010
856	1307
857	876
857	977
857	1231
857	1459
857	1708
858	986
858	991
858	1362
858	1549
858	1846
859	938
859	1141
859	1879
860	945
860	996
860	1282
860	1340
860	1574
860	1671
861	887
861	970
861	975
861	1531
862	1504
863	882
863	954
863	975
863	1302
864	1230
865	1197
865	1501
866	970
866	978
866	1220
866	1319
866	1718
867	928
867	931
867	967
867	1378
867	1560
867	1771
868	1619
868	1838
869	903
869	1188
869	1380
869	1692
869	1786
869	1951
870	1034
870	1321
870	1367
870	1412
871	903
871	1030
871	1540
871	1646
871	1746
871	1750
871	1766
871	1807
871	1808
871	1939
872	981
872	1055
872	1466
873	1079
873	1506
873	1609
873	1759
873	1820
873	1946
874	959
874	1346
874	1573
874	1716
875	904
875	1034
875	1201
876	1337
876	1342
876	1746
878	1005
878	1345
878	1938
879	936
879	944
879	1003
879	1264
879	1462
879	1635
880	1296
880	1986
881	997
881	1247
881	1298
881	1779
882	972
882	1240
882	1489
882	1802
882	1933
883	1226
883	1298
883	1308
883	1881
883	1994
884	991
884	1221
884	1496
884	1694
885	1305
885	1487
885	1565
885	1946
886	918
886	1263
886	1371
886	1865
887	935
887	965
887	973
887	1107
887	1130
887	1240
887	1646
888	933
888	1202
889	976
889	1392
889	1412
889	1606
889	1611
889	1813
890	936
890	978
891	1110
891	1583
892	1739
893	916
893	1054
893	1064
893	1374
893	1463
893	1869
894	1986
895	1346
895	1380
895	1572
896	927
896	1395
896	1450
897	948
897	978
897	1890
898	900
898	1040
898	1183
899	912
899	1659
900	1521
901	986
901	1820
902	1314
902	1679
902	1917
902	1976
903	998
903	1127
903	1339
903	1461
903	1832
903	1930
903	1950
904	1200
904	1479
904	1510
904	1514
904	1725
904	1775
904	1991
905	1012
905	1588
905	1855
906	1594
906	1992
907	961
907	1402
908	950
908	1204
908	1250
908	1623
909	1403
909	1724
910	1947
911	1162
911	1282
912	928
912	975
912	1848
913	964
913	1357
914	1035
914	1165
914	1264
914	1680
914	1797
914	1912
915	955
915	956
915	1063
916	937
916	988
916	1009
916	1419
916	1783
917	1206
917	1287
917	1724
918	1761
919	941
919	965
919	974
919	1261
919	1284
919	1317
920	928
921	934
921	1422
922	1361
922	1540
922	1576
922	1975
923	1367
923	1830
924	1023
924	1572
924	1648
924	1792
925	941
925	1092
925	1487
925	1859
925	1955
926	1488
926	1575
927	1460
927	1577
927	1776
927	1852
927	1980
928	998
928	1823
929	951
929	1514
929	1531
930	1118
930	1170
930	1705
931	966
931	1196
932	1521
933	1848
933	1897
934	970
934	1552
935	1698
936	1708
936	1895
937	951
937	1359
937	1794
938	1540
938	1833
939	1374
939	1955
940	994
940	996
941	1045
941	1450
942	1812
942	1880
944	967
944	994
944	1383
944	1904
945	954
945	982
945	1203
945	1531
946	1529
946	1783
946	1854
946	1884
947	1010
947	1629
947	1757
947	1793
948	1695
948	1818
949	1262
949	1912
950	1009
950	1143
950	1271
950	1364
950	1466
951	976
951	1100
951	1130
951	1409
952	1087
952	1332
952	1749
952	1990
953	992
953	1420
953	1632
954	1376
954	1776
954	1835
954	1889
955	1214
955	1352
955	1458
956	968
956	1024
956	1791
956	1903
957	997
957	1581
958	1411
958	1765
958	1985
959	1246
959	1490
959	1553
959	1612
959	1867
959	1968
960	970
960	1481
960	1496
960	1590
961	985
961	1439
962	1068
962	1768
963	1328
964	1063
964	1154
964	1349
964	1562
965	1051
965	1816
966	1136
966	1524
968	1634
970	1246
971	1284
971	1307
971	1654
971	1826
972	1322
972	1358
972	1411
972	1831
973	1064
973	1202
974	1143
974	1252
974	1642
974	1809
975	1532
976	1518
976	1758
976	1840
977	1327
977	1917
977	1958
978	1098
978	1369
979	1212
979	1312
979	1510
980	996
980	1097
980	1380
980	1476
980	1743
981	1474
981	1799
981	1961
982	1502
983	1416
984	1556
984	1662
984	1788
984	1789
985	1104
985	1187
985	1575
985	1932
986	1118
986	1326
986	1820
986	1966
987	1597
988	1188
988	1263
988	1392
988	1425
988	1556
989	1273
989	1802
989	1961
990	1140
990	1344
990	1385
990	1489
990	1780
990	1981
991	1431
991	1709
991	1717
991	1831
992	1705
993	995
993	999
993	1534
994	1041
994	1227
994	1284
994	1416
994	1424
995	1172
995	1825
996	1302
996	1881
997	1207
998	1134
998	1204
998	1298
998	1932
999	1081
999	1789
1000	1068
1000	1085
1000	1246
1000	1370
1000	1408
1000	1793
1000	1976
1001	1140
1001	1152
1001	1354
1001	1364
1001	1390
1001	1497
1001	1621
1001	1633
1001	1739
1001	1931
1001	1962
1002	1018
1002	1254
1002	1690
1002	1815
1002	1864
1002	1970
1003	1192
1003	1287
1003	1296
1003	1602
1003	1727
1003	1784
1003	1963
1004	1044
1004	1122
1004	1160
1004	1537
1004	1652
1004	1877
1004	1899
1004	1997
1005	1028
1005	1264
1005	1327
1005	1724
1005	1799
1005	1815
1005	1871
1005	1874
1005	1987
1006	1206
1006	1284
1006	1327
1006	1391
1006	1458
1006	1505
1006	1601
1006	1893
1006	1979
1006	1998
1007	1063
1007	1237
1007	1306
1007	1400
1007	1514
1007	1648
1007	1662
1007	1690
1007	1756
1007	1767
1008	1354
1008	1589
1008	1709
1008	1749
1008	1904
1009	1023
1009	1138
1009	1248
1009	1266
1009	1351
1009	1378
1009	1501
1009	1678
1009	1819
1009	1925
1010	1076
1010	1369
1010	1371
1010	1396
1010	1567
1010	1865
1011	1221
1011	1547
1011	1658
1011	1820
1011	1958
1012	1098
1012	1152
1012	1161
1012	1173
1012	1259
1012	1297
1012	1530
1012	1668
1012	1857
1012	1884
1013	1170
1013	1372
1013	1876
1014	1336
1014	1414
1014	1522
1014	1671
1014	1816
1014	1915
1015	1354
1015	1467
1015	1617
1015	1643
1015	1713
1015	1839
1015	1963
1016	1058
1016	1185
1016	1234
1016	1255
1016	1272
1016	1977
1017	1040
1017	1086
1017	1154
1017	1265
1017	1291
1017	1314
1017	1344
1017	1421
1017	1544
1017	1546
1017	1606
1017	1623
1017	1768
1017	1772
1017	1942
1018	1031
1018	1202
1018	1212
1018	1308
1018	1372
1018	1528
1018	1546
1019	1178
1019	1343
1019	1479
1019	1578
1019	1579
1019	1655
1020	1105
1020	1365
1020	1369
1020	1821
1021	1071
1021	1117
1021	1124
1021	1152
1021	1379
1021	1429
1022	1111
1022	1220
1022	1295
1022	1405
1022	1474
1022	1519
1022	1584
1022	1616
1022	1694
1022	1707
1022	1896
1022	1938
1022	1941
1022	1984
1023	1145
1023	1176
1023	1463
1023	1593
1023	1629
1023	1647
1024	1120
1024	1135
1024	1159
1024	1231
1024	1323
1024	1665
1024	1697
1024	1872
1024	1940
1024	1977
1025	1103
1025	1192
1025	1197
1025	1265
1025	1526
1025	1702
1025	1797
1026	1286
1026	1310
1026	1434
1026	1466
1026	1549
1026	1654
1026	1726
1026	1825
1027	1067
1027	1115
1027	1201
1027	1315
1027	1324
1027	1763
1028	1180
1028	1256
1028	1538
1028	1646
1028	1722
1029	1261
1029	1263
1029	1284
1029	1471
1029	1551
1029	1734
1029	1930
1030	1174
1030	1262
1030	1315
1030	1319
1030	1468
1030	1917
1031	1069
1031	1152
1031	1201
1031	1263
1031	1763
1032	1034
1032	1046
1032	1490
1032	1710
1032	1742
1032	1857
1033	1065
1033	1132
1033	1471
1033	1565
1033	1823
1034	1064
1034	1083
1034	1260
1034	1313
1034	1471
1034	1910
1034	1956
1034	1963
1035	1043
1035	1120
1035	1246
1035	1464
1035	1505
1035	1524
1035	1720
1035	1763
1035	1847
1035	1884
1035	1987
1036	1136
1036	1183
1036	1365
1036	1632
1037	1173
1037	1488
1037	1809
1037	1812
1037	1963
1037	1991
1038	1086
1038	1209
1038	1336
1038	1428
1038	1764
1038	1972
1038	1989
1039	1193
1039	1689
1039	1810
1039	1956
1040	1295
1040	1373
1040	1512
1040	1676
1040	1678
1040	1796
1040	1805
1040	1875
1040	1970
1041	1384
1041	1406
1041	1453
1041	1511
1041	1959
1041	1991
1042	1102
1042	1171
1042	1315
1042	1369
1042	1582
1042	1766
1043	1331
1043	1362
1043	1390
1043	1500
1043	1558
1043	1605
1043	1626
1043	1807
1043	1869
1044	1133
1044	1258
1044	1341
1044	1798
1044	1819
1045	1656
1045	1817
1045	1949
1045	1976
1046	1070
1046	1131
1046	1420
1046	1509
1046	1774
1046	1940
1046	1959
1047	1149
1047	1186
1047	1355
1047	1460
1047	1588
1047	1921
1047	1981
1048	1076
1048	1407
1048	1435
1048	1554
1048	1895
1049	1176
1049	1273
1049	1340
1049	1384
1049	1599
1049	1606
1049	1751
1049	1792
1049	1843
1049	1898
1049	1999
1050	1170
1050	1179
1050	1225
1050	1382
1050	1890
1051	1196
1051	1439
1051	1456
1051	1742
1051	1821
1051	1872
1052	1175
1052	1226
1052	1880
1052	1911
1053	1058
1053	1258
1053	1301
1053	1466
1053	1514
1053	1649
1053	1693
1053	1990
1054	1287
1054	1683
1054	1741
1054	1803
1055	1121
1055	1333
1055	1502
1055	1560
1055	1802
1055	1833
1056	1072
1056	1217
1056	1258
1056	1288
1056	1303
1056	1708
1056	1728
1056	1903
1057	1326
1057	1515
1057	1542
1057	1954
1057	1963
1057	1997
1058	1230
1058	1340
1058	1357
1058	1366
1058	1675
1058	1887
1058	1921
1058	1960
1059	1138
1059	1169
1059	1177
1059	1341
1059	1585
1059	1720
1059	1724
1059	1871
1060	1061
1060	1103
1060	1164
1060	1234
1060	1248
1060	1550
1060	1747
1061	1064
1061	1350
1061	1389
1061	1514
1061	1569
1061	1594
1061	1651
1061	1940
1062	1082
1062	1113
1062	1187
1062	1317
1062	1533
1062	1903
1062	1906
1063	1130
1063	1222
1063	1300
1063	1311
1063	1365
1063	1395
1063	1461
1063	1488
1063	1717
1063	1777
1063	1780
1063	1883
1064	1132
1064	1213
1064	1881
1065	1155
1065	1295
1065	1335
1065	1475
1065	1499
1065	1570
1065	1601
1065	1824
1066	1097
1066	1357
1066	1398
1066	1522
1066	1540
1066	1773
1066	1960
1066	1980
1067	1084
1067	1142
1067	1160
1067	1349
1067	1462
1067	1516
1067	1656
1067	1749
1067	1881
1067	1983
1068	1109
1068	1127
1068	1191
1068	1416
1068	1515
1068	1665
1068	1903
1069	1231
1069	1335
1069	1457
1069	1731
1069	1752
1069	1841
1069	1856
1070	1404
1070	1461
1070	1541
1070	1554
1070	1686
1070	1901
1071	1118
1071	1225
1071	1348
1071	1534
1071	1821
1072	1314
1072	1454
1072	1844
1072	1864
1072	1929
1072	1975
1073	1203
1073	1269
1073	1420
1073	1585
1073	1784
1073	1930
1073	1973
1073	1999
1074	1100
1074	1123
1074	1150
1074	1152
1074	1178
1074	1470
1074	1695
1075	1366
1075	1439
1075	1452
1075	1618
1075	1780
1075	1928
1075	1947
1076	1340
1076	1480
1076	1585
1076	1593
1076	1602
1076	1641
1076	1673
1076	1874
1076	1903
1077	1159
1077	1220
1077	1240
1077	1393
1077	1411
1077	1557
1077	1689
1077	1818
1077	1868
1078	1192
1078	1638
1079	1091
1079	1135
1079	1190
1079	1548
1079	1670
1079	1708
1079	1774
1080	1107
1080	1142
1080	1185
1080	1204
1080	1311
1080	1416
1080	1748
1080	1791
1080	1876
1080	1887
1081	1082
1081	1092
1081	1140
1081	1159
1081	1202
1081	1418
1081	1501
1081	1662
1082	1117
1082	1245
1082	1361
1082	1446
1082	1475
1082	1712
1082	1743
1082	1766
1082	1962
1083	1327
1083	1447
1083	1752
1083	1892
1083	1959
1084	1165
1084	1174
1084	1225
1084	1261
1084	1312
1084	1403
1084	1447
1084	1706
1084	1806
1084	1916
1085	1454
1085	1604
1085	1736
1085	1755
1085	1832
1086	1288
1086	1326
1086	1448
1086	1559
1086	1597
1086	1628
1086	1801
1087	1284
1087	1320
1087	1485
1087	1678
1087	1889
1087	1908
1088	1189
1088	1210
1088	1280
1088	1487
1088	1515
1088	1558
1088	1578
1088	1595
1088	1603
1088	1769
1088	1821
1088	1849
1089	1107
1089	1173
1089	1180
1089	1235
1089	1293
1089	1399
1089	1475
1089	1730
1090	1104
1090	1138
1090	1233
1090	1318
1090	1356
1090	1381
1090	1615
1090	1830
1090	1881
1090	1968
1091	1108
1091	1490
1091	1510
1091	1519
1091	1580
1091	1916
1092	1107
1092	1143
1092	1409
1092	1411
1092	1648
1092	1666
1092	1696
1092	1746
1092	1835
1092	1919
1092	1981
1093	1202
1093	1228
1093	1275
1093	1536
1093	1704
1093	1727
1093	1854
1093	1879
1094	1644
1094	1648
1094	1840
1095	1128
1095	1132
1095	1220
1095	1469
1095	1527
1095	1585
1095	1587
1095	1658
1095	1681
1095	1917
1096	1125
1096	1209
1096	1232
1096	1308
1096	1465
1096	1638
1097	1108
1097	1160
1097	1354
1097	1543
1097	1818
1097	1902
1098	1253
1098	1492
1098	1547
1098	1613
1099	1182
1099	1199
1099	1682
1099	1745
1099	1757
1100	1167
1100	1547
1100	1681
1101	1103
1101	1180
1101	1251
1101	1325
1101	1514
1101	1542
1101	1668
1101	1822
1101	1898
1102	1234
1102	1342
1102	1469
1102	1670
1102	1848
1103	1156
1103	1272
1103	1314
1103	1433
1103	1555
1103	1657
1103	1685
1103	1687
1103	1834
1104	1131
1104	1326
1104	1345
1105	1287
1105	1409
1105	1543
1105	1547
1105	1569
1105	1580
1105	1586
1105	1617
1105	1765
1105	1887
1106	1475
1106	1858
1107	1148
1107	1163
1107	1181
1107	1289
1107	1354
1107	1454
1107	1528
1107	1707
1107	1884
1107	1957
1107	1981
1108	1271
1108	1338
1108	1475
1108	1664
1108	1667
1108	1742
1108	1811
1108	1820
1108	1857
1109	1582
1109	1696
1109	1701
1109	1896
1109	1987
1109	1995
1110	1199
1110	1380
1110	1394
1110	1457
1110	1509
1110	1729
1110	1997
1111	1257
1111	1260
1111	1352
1111	1439
1111	1668
1111	1894
1111	1905
1111	1985
1112	1436
1112	1505
1112	1506
1112	1570
1112	1588
1112	1644
1113	1203
1113	1296
1113	1460
1113	1528
1113	1640
1113	1771
1114	1264
1114	1462
1114	1562
1114	1958
1114	1994
1115	1140
1115	1348
1115	1788
1115	1801
1115	1845
1115	1883
1115	1897
1115	1952
1115	1979
1115	1997
1116	1166
1116	1283
1116	1420
1116	1966
1117	1258
1117	1310
1117	1508
1117	1534
1117	1716
1117	1758
1117	1878
1118	1148
1118	1209
1118	1301
1118	1382
1118	1905
1119	1303
1119	1337
1119	1357
1119	1661
1119	1679
1119	1718
1120	1608
1120	1885
1121	1247
1121	1319
1121	1579
1121	1814
1122	1347
1122	1424
1122	1475
1122	1884
1122	1899
1122	1999
1123	1408
1123	1471
1123	1654
1123	1738
1123	1879
1124	1202
1124	1254
1124	1346
1124	1423
1124	1441
1124	1559
1124	1562
1124	1703
1124	1836
1124	1911
1125	1205
1125	1245
1125	1575
1126	1306
1126	1453
1126	1524
1126	1605
1126	1704
1127	1445
1127	1467
1127	1898
1127	1978
1127	1980
1128	1447
1128	1769
1129	1202
1129	1406
1129	1473
1129	1591
1129	1621
1129	1809
1129	1871
1130	1301
1130	1391
1130	1484
1130	1655
1130	1897
1131	1369
1131	1677
1132	1153
1132	1189
1132	1855
1133	1318
1133	1382
1133	1438
1133	1516
1133	1674
1133	1915
1134	1247
1134	1400
1134	1478
1134	1710
1134	1906
1134	1991
1135	1187
1135	1245
1135	1276
1135	1972
1136	1280
1136	1334
1136	1368
1136	1590
1136	1669
1137	1139
1137	1234
1137	1285
1137	1316
1137	1410
1137	1577
1137	1623
1137	1624
1137	1843
1138	1231
1138	1237
1138	1262
1138	1289
1138	1525
1138	1564
1138	1603
1138	1671
1138	1715
1139	1158
1139	1204
1139	1389
1139	1462
1139	1608
1139	1844
1140	1207
1140	1211
1140	1225
1140	1424
1140	1454
1141	1359
1141	1375
1141	1388
1141	1550
1141	1572
1141	1694
1141	1798
1142	1227
1142	1437
1142	1556
1142	1988
1143	1242
1143	1537
1144	1180
1144	1310
1144	1493
1144	1696
1144	1725
1144	1762
1144	1845
1144	1865
1144	1872
1144	1968
1145	1916
1146	1404
1146	1823
1147	1265
1147	1510
1148	1415
1148	1596
1148	1730
1148	1732
1148	1840
1149	1201
1149	1423
1149	1924
1150	1249
1150	1366
1150	1495
1150	1529
1150	1763
1151	1333
1151	1419
1151	1725
1151	1767
1151	1792
1151	1861
1151	1887
1151	1894
1151	1942
1151	1989
1152	1313
1152	1324
1152	1684
1153	1157
1153	1170
1153	1503
1153	1569
1153	1740
1153	1839
1153	1943
1154	1450
1154	1504
1154	1573
1154	1621
1154	1666
1154	1816
1154	1997
1155	1333
1155	1490
1155	1672
1155	1808
1155	1849
1155	1855
1156	1243
1156	1250
1156	1798
1157	1298
1157	1464
1157	1556
1157	1723
1157	1740
1157	1884
1158	1263
1158	1268
1158	1364
1158	1451
1158	1688
1158	1733
1158	1912
1158	1930
1158	1940
1159	1188
1159	1196
1159	1239
1159	1538
1159	1645
1159	1737
1159	1761
1160	1189
1160	1254
1160	1719
1160	1956
1160	1984
1161	1170
1161	1445
1161	1506
1161	1526
1161	1947
1161	1975
1162	1168
1162	1227
1162	1431
1162	1558
1162	1830
1162	1881
1163	1217
1163	1426
1163	1516
1163	1952
1164	1188
1164	1295
1164	1429
1164	1570
1164	1587
1164	1948
1165	1319
1165	1321
1165	1622
1165	1932
1166	1289
1166	1548
1166	1699
1166	1732
1166	1739
1166	1832
1167	1219
1167	1679
1167	1802
1167	1906
1168	1306
1168	1353
1168	1700
1168	1746
1168	1749
1168	1832
1168	1861
1169	1202
1169	1337
1169	1444
1169	1507
1169	1516
1169	1729
1169	1736
1169	1783
1169	1807
1170	1301
1170	1336
1170	1619
1170	1804
1171	1206
1171	1243
1171	1578
1171	1693
1171	1811
1171	1838
1171	1885
1171	1916
1172	1680
1172	1748
1172	1874
1172	1953
1173	1406
1173	1469
1173	1612
1173	1986
1174	1186
1174	1198
1174	1214
1174	1234
1174	1250
1174	1388
1174	1404
1174	1516
1174	1658
1174	1709
1174	1794
1174	1857
1174	1914
1175	1183
1175	1409
1175	1475
1175	1701
1175	1748
1175	1783
1175	1814
1176	1350
1176	1706
1176	1807
1177	1234
1177	1297
1177	1386
1177	1477
1177	1708
1177	1938
1177	1951
1178	1425
1178	1604
1178	1720
1178	1729
1179	1242
1179	1356
1179	1397
1179	1557
1179	1633
1179	1750
1179	1765
1179	1791
1179	1866
1180	1329
1180	1451
1180	1642
1180	1703
1180	1720
1180	1748
1180	1776
1180	1879
1181	1375
1181	1376
1181	1567
1182	1200
1182	1289
1182	1368
1182	1578
1182	1580
1182	1752
1182	1922
1183	1302
1183	1316
1183	1336
1183	1743
1183	1752
1183	1775
1184	1442
1184	1713
1184	1957
1184	1960
1185	1408
1185	1418
1185	1639
1185	1881
1185	1886
1185	1890
1186	1249
1186	1256
1186	1872
1187	1318
1187	1439
1187	1537
1187	1634
1187	1658
1187	1711
1187	1883
1187	1948
1188	1218
1188	1286
1188	1373
1188	1572
1188	1795
1188	1865
1188	1945
1188	1988
1189	1230
1189	1585
1189	1725
1189	1778
1190	1317
1190	1422
1190	1478
1190	1497
1190	1982
1191	1269
1191	1296
1191	1311
1191	1451
1191	1617
1191	1706
1191	1737
1192	1286
1192	1314
1192	1473
1192	1509
1192	1552
1192	1735
1192	1808
1193	1504
1193	1616
1193	1721
1193	1725
1193	1825
1194	1306
1194	1311
1195	1211
1195	1433
1195	1588
1195	1600
1195	1665
1196	1915
1196	1920
1196	1984
1197	1413
1197	1465
1197	1541
1197	1585
1197	1657
1197	1721
1197	1760
1198	1367
1198	1375
1198	1529
1198	1571
1198	1595
1198	1652
1198	1668
1198	1811
1198	1855
1198	1862
1198	1879
1199	1445
1199	1494
1199	1924
1200	1242
1200	1246
1200	1253
1200	1407
1200	1657
1200	1701
1200	1846
1200	1969
1200	1991
1201	1287
1201	1774
1201	1874
1201	1916
1201	1933
1202	1230
1202	1358
1202	1397
1202	1575
1202	1674
1203	1335
1203	1375
1203	1470
1203	1583
1203	1847
1203	1960
1204	1237
1204	1572
1204	1695
1204	1819
1204	1912
1204	1952
1205	1376
1205	1588
1205	1612
1205	1677
1205	1714
1205	1930
1206	1329
1206	1514
1206	1525
1206	1542
1206	1942
1207	1292
1207	1332
1207	1476
1207	1676
1207	1780
1207	1904
1208	1235
1208	1337
1208	1374
1208	1411
1208	1477
1208	1483
1208	1506
1208	1647
1208	1759
1209	1564
1209	1567
1210	1339
1210	1747
1210	1750
1210	1796
1210	1813
1211	1245
1211	1264
1211	1499
1211	1608
1211	1621
1211	1632
1211	1842
1212	1248
1212	1308
1212	1497
1212	1640
1212	1674
1212	1704
1212	1826
1213	1338
1213	1556
1213	1627
1213	1639
1213	1946
1214	1238
1214	1369
1214	1386
1214	1546
1214	1659
1214	1687
1214	1954
1215	1382
1215	1466
1215	1684
1215	1725
1215	1756
1215	1800
1215	1814
1215	1873
1216	1231
1216	1281
1216	1524
1216	1602
1216	1943
1217	1264
1217	1371
1217	1432
1217	1591
1217	1765
1218	1246
1218	1256
1218	1343
1218	1355
1218	1486
1218	1490
1218	1635
1218	1680
1218	1782
1218	1805
1218	1858
1218	1865
1219	1282
1219	1718
1220	1336
1220	1460
1220	1509
1220	1711
1220	1718
1220	1849
1221	1377
1221	1448
1221	1454
1221	1504
1221	1628
1221	1645
1221	1740
1221	1761
1221	1783
1221	1963
1222	1325
1222	1341
1222	1569
1222	1598
1223	1422
1223	1670
1223	1811
1223	1868
1223	1906
1223	1933
1223	1980
1224	1491
1224	1529
1224	1582
1224	1938
1225	1295
1225	1328
1225	1341
1225	1392
1225	1483
1225	1700
1225	1822
1225	1850
1225	1925
1225	1963
1226	1228
1226	1562
1226	1581
1226	1801
1226	1936
1227	1282
1227	1521
1227	1843
1227	1902
1228	1675
1228	1731
1229	1314
1229	1343
1229	1545
1229	1810
1229	1818
1230	1275
1230	1405
1230	1548
1230	1736
1230	1873
1231	1323
1231	1325
1231	1584
1231	1628
1231	1652
1231	1761
1231	1810
1231	1955
1231	1963
1231	1997
1232	1453
1232	1634
1232	1755
1233	1238
1233	1246
1233	1298
1233	1375
1233	1490
1233	1861
1233	1876
1234	1272
1234	1286
1234	1580
1234	1828
1235	1376
1235	1459
1235	1493
1235	1517
1235	1603
1235	1673
1235	1886
1236	1361
1236	1433
1236	1539
1236	1948
1237	1430
1237	1544
1237	1564
1237	1720
1237	1745
1237	1939
1238	1253
1238	1261
1238	1387
1238	1396
1238	1475
1238	1763
1238	1838
1238	1850
1238	1983
1239	1477
1239	1494
1239	1641
1239	1644
1239	1656
1239	1683
1239	1771
1239	1852
1240	1281
1240	1295
1240	1335
1240	1673
1241	1574
1241	1598
1241	1899
1241	1924
1241	1931
1241	1999
1242	1245
1242	1263
1242	1418
1242	1553
1242	1785
1242	1941
1242	1974
1242	1979
1243	1344
1243	1356
1243	1389
1243	1574
1243	1656
1243	1722
1243	1811
1244	1367
1244	1377
1244	1383
1244	1431
1244	1444
1244	1544
1244	1954
1244	1999
1245	1418
1245	1681
1245	1850
1245	1938
1246	1307
1246	1340
1246	1485
1246	1599
1246	1601
1246	1624
1246	1742
1246	1743
1247	1267
1247	1401
1247	1618
1247	1680
1247	1695
1248	1635
1248	1878
1248	1993
1249	1299
1249	1488
1249	1758
1249	1850
1249	1885
1249	1888
1250	1876
1250	1956
1251	1308
1251	1451
1251	1634
1251	1676
1251	1749
1251	1799
1251	1887
1252	1335
1252	1466
1252	1474
1252	1486
1252	1622
1253	1289
1253	1542
1254	1345
1254	1359
1254	1384
1254	1531
1254	1547
1254	1651
1254	1786
1254	1842
1254	1865
1254	1955
1255	1554
1255	1569
1255	1692
1255	1711
1255	1716
1255	1805
1255	1894
1255	1904
1256	1482
1256	1522
1256	1566
1257	1449
1257	1531
1257	1635
1257	1651
1257	1755
1257	1862
1258	1599
1258	1635
1258	1715
1258	1810
1258	1831
1258	1996
1259	1624
1259	1653
1259	1893
1260	1798
1260	1854
1261	1448
1261	1601
1261	1613
1261	1758
1261	1801
1262	1317
1262	1551
1262	1824
1262	1838
1262	1873
1262	1955
1263	1303
1263	1312
1263	1533
1263	1641
1263	1671
1263	1680
1263	1862
1263	1890
1263	1977
1264	1332
1264	1364
1264	1544
1264	1545
1264	1586
1264	1630
1264	1772
1264	1890
1264	1985
1265	1315
1265	1686
1265	1691
1265	1713
1265	1891
1265	1936
1265	1943
1265	1955
1266	1385
1266	1425
1266	1474
1266	1538
1266	1563
1266	1772
1266	1830
1266	1831
1266	1935
1267	1282
1267	1288
1267	1641
1267	1649
1268	1410
1268	1440
1268	1537
1269	1393
1269	1427
1269	1977
1270	1317
1270	1445
1270	1568
1270	1618
1270	1646
1270	1798
1271	1357
1271	1373
1271	1523
1271	1628
1271	1692
1271	1851
1272	1438
1272	1511
1272	1637
1273	1465
1273	1675
1274	1443
1274	1506
1274	1805
1274	1916
1275	1362
1275	1425
1275	1435
1275	1701
1275	1715
1275	1761
1275	1929
1275	1931
1276	1302
1276	1398
1276	1409
1276	1517
1276	1796
1276	1798
1276	1865
1276	1934
1277	1401
1277	1460
1277	1857
1277	1866
1278	1541
1278	1629
1278	1701
1279	1549
1279	1645
1279	1672
1279	1824
1280	1372
1280	1449
1280	1465
1280	1962
1281	1285
1281	1563
1281	1838
1281	1961
1282	1593
1282	1598
1282	1613
1282	1848
1282	1903
1283	1378
1283	1569
1283	1840
1283	1869
1284	1500
1284	1654
1284	1789
1285	1351
1285	1476
1285	1542
1285	1543
1285	1554
1285	1820
1285	1998
1286	1375
1286	1406
1286	1677
1286	1689
1286	1767
1286	1777
1286	1899
1286	1953
1287	1381
1287	1419
1287	1435
1287	1453
1287	1633
1287	1737
1287	1798
1287	1813
1287	1846
1287	1847
1287	1916
1288	1358
1288	1482
1288	1597
1288	1875
1289	1352
1289	1465
1289	1469
1289	1489
1289	1651
1289	1673
1289	1680
1289	1747
1289	1755
1289	1867
1289	1947
1289	1948
1290	1323
1290	1336
1290	1391
1290	1583
1290	1705
1291	1346
1291	1363
1291	1479
1291	1714
1291	1848
1291	1933
1292	1300
1292	1486
1292	1525
1292	1924
1293	1316
1293	1330
1293	1350
1293	1600
1293	1729
1293	1781
1294	1440
1294	1508
1294	1545
1294	1904
1294	1954
1295	1405
1295	1418
1295	1946
1295	1989
1296	1414
1296	1664
1296	1806
1296	1902
1297	1569
1297	1650
1297	1652
1297	1660
1297	1796
1297	1822
1298	1468
1298	1660
1298	1775
1298	1809
1298	1895
1298	1944
1299	1441
1299	1585
1299	1963
1300	1345
1300	1373
1300	1395
1300	1445
1300	1656
1300	1661
1300	1811
1300	1883
1300	1928
1301	1333
1301	1626
1301	1629
1301	1658
1301	1670
1301	1680
1301	1822
1302	1611
1302	1655
1302	1938
1303	1593
1303	1828
1304	1371
1304	1573
1304	1716
1304	1859
1305	1659
1305	1661
1305	1669
1305	1794
1305	1957
1305	1994
1306	1363
1306	1612
1306	1668
1306	1686
1306	1843
1307	1393
1307	1475
1307	1573
1307	1623
1307	1643
1307	1735
1307	1740
1307	1848
1307	1937
1308	1347
1308	1356
1308	1433
1308	1541
1308	1560
1308	1815
1308	1851
1309	1621
1309	1790
1309	1809
1309	1839
1310	1401
1310	1481
1310	1672
1310	1825
1310	1870
1310	1994
1311	1399
1311	1469
1311	1537
1311	1835
1311	1863
1312	1482
1312	1773
1313	1547
1313	1581
1313	1639
1313	1743
1313	1780
1313	1885
1313	1892
1314	1455
1314	1537
1314	1542
1314	1587
1314	1603
1314	1665
1314	1680
1314	1739
1314	1861
1314	1876
1315	1320
1315	1561
1315	1629
1315	1876
1315	1891
1316	1364
1316	1620
1316	1694
1316	1800
1316	1836
1317	1401
1317	1480
1317	1515
1317	1597
1317	1658
1317	1672
1317	1696
1317	1789
1317	1958
1318	1359
1318	1458
1318	1470
1318	1631
1318	1914
1318	1933
1319	1570
1319	1705
1319	1721
1319	1765
1319	1916
1320	1495
1320	1656
1320	1686
1320	1826
1321	1589
1321	1616
1321	1671
1321	1826
1321	1867
1322	1459
1322	1540
1322	1631
1322	1794
1323	1366
1323	1659
1323	1668
1323	1700
1323	1817
1323	1825
1324	1431
1324	1436
1324	1722
1324	1896
1324	1929
1325	1509
1325	1546
1325	1648
1325	1740
1325	1860
1326	1492
1326	1513
1326	1534
1326	1560
1326	1576
1326	1653
1326	1692
1326	1702
1326	1757
1326	1869
1326	1943
1327	1614
1327	1720
1327	1741
1327	1859
1328	1329
1328	1700
1329	1454
1329	1536
1329	1596
1329	1838
1330	1363
1330	1458
1330	1510
1330	1683
1330	1710
1330	1979
1330	1993
1331	1550
1331	1983
1332	1699
1332	1792
1332	1872
1332	1880
1332	1910
1333	1414
1333	1475
1333	1708
1333	1711
1333	1753
1333	1900
1333	1984
1334	1392
1334	1424
1334	1462
1334	1489
1334	1545
1334	1705
1334	1750
1334	1881
1335	1535
1335	1576
1335	1836
1335	1838
1335	1842
1335	1912
1335	1934
1336	1346
1336	1394
1336	1425
1336	1436
1336	1597
1336	1738
1336	1745
1336	1782
1337	1541
1337	1669
1337	1701
1337	1739
1337	1764
1338	1344
1339	1370
1339	1957
1339	1991
1339	1995
1340	1369
1340	1448
1340	1810
1340	1882
1342	1576
1342	1668
1342	1864
1342	1944
1342	1968
1343	1482
1343	1707
1343	1886
1344	1514
1344	1530
1344	1535
1344	1591
1344	1643
1344	1819
1344	1922
1345	1406
1345	1435
1345	1540
1345	1550
1345	1698
1345	1923
1345	1988
1346	1427
1346	1457
1346	1551
1346	1553
1346	1607
1346	1665
1346	1780
1347	1433
1347	1945
1348	1586
1348	1664
1348	1666
1348	1719
1348	1847
1349	1402
1349	1413
1349	1462
1349	1478
1349	1523
1349	1688
1349	1746
1349	1983
1350	1413
1350	1605
1350	1883
1350	1911
1350	1947
1350	1976
1351	1445
1351	1594
1351	1776
1351	1924
1352	1439
1352	1488
1352	1589
1352	1863
1352	1994
1353	1366
1353	1746
1353	1979
1354	1447
1354	1855
1355	1424
1355	1667
1355	1924
1355	1971
1356	1406
1356	1485
1356	1689
1356	1785
1356	1919
1356	1928
1356	1941
1357	1408
1357	1882
1358	1435
1358	1447
1358	1459
1358	1544
1358	1813
1358	1892
1359	1498
1359	1577
1359	1589
1359	1755
1359	1848
1359	1905
1359	1934
1359	1972
1361	1448
1361	1471
1361	1520
1361	1525
1361	1619
1362	1383
1362	1422
1362	1485
1362	1533
1362	1675
1362	1749
1363	1452
1363	1661
1363	1866
1364	1436
1364	1450
1364	1656
1365	1422
1365	1481
1365	1487
1365	1499
1365	1545
1365	1990
1366	1935
1366	1952
1367	1536
1367	1799
1367	1819
1368	1524
1368	1626
1368	1638
1368	1669
1368	1856
1368	1934
1369	1487
1369	1514
1369	1558
1369	1732
1369	1757
1369	1775
1369	1849
1370	1556
1370	1622
1371	1753
1373	1518
1373	1580
1373	1707
1373	1811
1373	1923
1373	1957
1374	1512
1374	1750
1374	1823
1375	1495
1375	1667
1375	1840
1375	1849
1375	1972
1376	1391
1376	1689
1376	1849
1376	1935
1377	1382
1377	1833
1377	1935
1378	1479
1378	1538
1378	1579
1378	1591
1378	1744
1378	1784
1378	1895
1379	1617
1379	1787
1379	1865
1379	1895
1379	1933
1379	1962
1380	1606
1380	1737
1380	1974
1382	1645
1382	1669
1382	1749
1382	1872
1382	1989
1382	1996
1383	1685
1384	1535
1384	1614
1384	1780
1385	1420
1385	1428
1385	1483
1385	1698
1385	1795
1385	1896
1385	1924
1385	1961
1386	1423
1386	1815
1386	1842
1387	1395
1387	1469
1387	1559
1387	1596
1387	1755
1388	1587
1388	1960
1388	1962
1389	1607
1389	1636
1389	1754
1389	1972
1390	1403
1390	1469
1390	1522
1390	1546
1390	1865
1391	1413
1391	1462
1391	1610
1391	1853
1391	1921
1392	1612
1393	1477
1393	1575
1393	1870
1393	1901
1393	1957
1394	1467
1394	1528
1394	1639
1395	1458
1395	1547
1395	1631
1395	1817
1396	1468
1396	1478
1396	1505
1396	1536
1396	1646
1396	1655
1396	1686
1396	1818
1396	1937
1397	1439
1397	1674
1397	1724
1397	1874
1398	1442
1400	1664
1400	1738
1401	1534
1401	1658
1401	1665
1401	1856
1401	1897
1401	1958
1402	1486
1402	1685
1402	1812
1403	1417
1403	1963
1403	1971
1403	1993
1404	1685
1405	1447
1405	1508
1405	1628
1405	1824
1406	1749
1406	1817
1406	1823
1407	1564
1407	1839
1407	1932
1407	1998
1408	1900
1408	1985
1408	1996
1409	1669
1409	1690
1409	1708
1409	1713
1410	1677
1411	1434
1411	1598
1411	1789
1411	1794
1411	1872
1411	1884
1411	1893
1411	1966
1412	1508
1412	1647
1412	1773
1412	1865
1413	1567
1413	1643
1413	1645
1414	1428
1414	1459
1414	1522
1414	1554
1414	1700
1414	1804
1414	1974
1415	1604
1415	1642
1415	1796
1415	1819
1415	1886
1415	1983
1416	1670
1416	1859
1416	1937
1417	1753
1417	1816
1418	1427
1418	1520
1418	1731
1418	1986
1419	1518
1419	1810
1420	1482
1420	1522
1420	1540
1420	1639
1420	1651
1420	1742
1421	1446
1421	1481
1422	1463
1423	1828
1423	1836
1424	1639
1424	1651
1424	1761
1424	1771
1424	1774
1424	1860
1424	1884
1425	1622
1425	1634
1426	1593
1426	1793
1427	1547
1427	1568
1427	1864
1428	1511
1428	1640
1428	1670
1428	1741
1429	1757
1429	1776
1429	1907
1429	1925
1429	1944
1430	1560
1430	1723
1430	1837
1430	1840
1431	1466
1431	1468
1431	1552
1431	1622
1431	1732
1431	1779
1431	1806
1431	1836
1431	1844
1431	1871
1432	1466
1432	1496
1432	1684
1432	1878
1432	1882
1433	1835
1433	1879
1434	1452
1434	1656
1434	1680
1434	1856
1435	1477
1435	1506
1436	1463
1436	1480
1436	1504
1436	1621
1436	1714
1436	1721
1436	1831
1436	1896
1437	1530
1437	1750
1437	1916
1438	1478
1438	1518
1438	1643
1438	1706
1438	1793
1438	1921
1439	1472
1439	1506
1439	1632
1439	1672
1439	1878
1439	1918
1440	1894
1441	1579
1441	1640
1441	1676
1441	1770
1441	1856
1441	1867
1441	1898
1441	1935
1442	1459
1442	1500
1442	1698
1443	1562
1443	1646
1443	1979
1444	1468
1444	1809
1444	1950
1445	1453
1445	1573
1445	1599
1445	1623
1445	1718
1445	1761
1445	1909
1445	1969
1446	1449
1446	1872
1447	1775
1448	1543
1448	1550
1448	1712
1448	1860
1448	1960
1449	1520
1449	1621
1449	1740
1449	1814
1449	1820
1449	1831
1449	1914
1449	1935
1450	1578
1450	1887
1450	1906
1450	1965
1451	1601
1451	1783
1452	1458
1452	1471
1452	1605
1452	1797
1452	1840
1452	1895
1452	1922
1453	1981
1454	1596
1454	1650
1454	1792
1455	1472
1455	1557
1455	1658
1455	1665
1455	1737
1455	1886
1456	1549
1456	1565
1456	1889
1456	1905
1456	1995
1457	1579
1457	1600
1457	1740
1457	1751
1458	1496
1458	1530
1458	1539
1458	1640
1458	1780
1458	1792
1458	1803
1458	1964
1459	1716
1459	1777
1459	1801
1459	1839
1460	1632
1460	1876
1460	1877
1461	1529
1461	1705
1461	1809
1461	1825
1462	1543
1462	1558
1462	1693
1462	1743
1462	1928
1463	1768
1463	1869
1464	1566
1464	1813
1464	1975
1465	1702
1465	1722
1465	1957
1465	1978
1466	1576
1466	1785
1466	1818
1466	1966
1466	1998
1467	1515
1467	1792
1467	1799
1467	1800
1467	1915
1467	1986
1468	1514
1468	1602
1468	1696
1468	1702
1468	1735
1468	1756
1468	1906
1468	1924
1468	1933
1469	1507
1469	1670
1469	1672
1469	1735
1469	1878
1470	1573
1470	1649
1470	1660
1470	1744
1470	1900
1470	1993
1471	1491
1471	1540
1471	1613
1471	1623
1471	1712
1471	1795
1471	1830
1471	1849
1472	1752
1472	1946
1472	1977
1473	1544
1474	1533
1474	1606
1474	1637
1474	1640
1474	1760
1474	1971
1475	1567
1475	1801
1476	1497
1476	1529
1476	1539
1476	1757
1476	1780
1476	1912
1476	1970
1477	1702
1477	1744
1477	1872
1477	1959
1478	1615
1478	1713
1478	1729
1478	1739
1478	1990
1479	1564
1479	1645
1479	1727
1480	1499
1480	1534
1480	1546
1480	1551
1480	1647
1480	1738
1480	1741
1480	1772
1480	1845
1481	1596
1481	1996
1482	1756
1483	1723
1483	1727
1483	1769
1484	1510
1484	1541
1484	1632
1484	1663
1484	1701
1484	1739
1484	1870
1484	1955
1484	1971
1485	1641
1485	1670
1485	1723
1486	1516
1486	1572
1486	1600
1486	1719
1487	1579
1487	1716
1487	1741
1487	1865
1488	1564
1488	1916
1488	1971
1489	1570
1489	1695
1489	1782
1489	1895
1491	1522
1491	1666
1491	1699
1491	1835
1492	1521
1492	1527
1492	1562
1492	1614
1492	1634
1492	1785
1492	1932
1492	1940
1493	1550
1493	1582
1493	1625
1493	1664
1493	1710
1493	1966
1494	1540
1494	1582
1494	1607
1494	1749
1494	1756
1494	1776
1494	1979
1495	1672
1495	1814
1495	1903
1496	1498
1496	1542
1496	1640
1496	1741
1497	1795
1497	1999
1498	1561
1498	1704
1498	1707
1498	1830
1498	1863
1499	1709
1499	1841
1499	1970
1499	1997
1500	1880
1501	1614
1501	1787
1502	1636
1502	1765
1504	1545
1504	1633
1504	1851
1504	1929
1504	1944
1504	1985
1505	1696
1505	1813
1506	1511
1506	1597
1507	1577
1507	1835
1507	1917
1508	1615
1508	1646
1508	1751
1508	1756
1508	1781
1508	1803
1508	1934
1508	1953
1509	1780
1509	1791
1509	1834
1509	1982
1510	1802
1511	1553
1511	1591
1511	1631
1511	1878
1511	1968
1512	1579
1512	1804
1512	1812
1513	1836
1513	1892
1514	1678
1514	1817
1514	1827
1514	1911
1514	1930
1515	1782
1516	1845
1516	1918
1517	1525
1517	1913
1518	1699
1518	1720
1518	1732
1518	1733
1518	1761
1518	1817
1518	1907
1518	1920
1518	1984
1518	1998
1519	1560
1519	1581
1519	1713
1519	1913
1520	1622
1520	1695
1521	1564
1521	1987
1522	1577
1522	1775
1522	1797
1522	1926
1523	1600
1523	1755
1523	1802
1524	1558
1524	1689
1524	1748
1524	1800
1525	1537
1525	1700
1525	1857
1526	1574
1526	1608
1526	1613
1526	1649
1526	1653
1526	1670
1526	1806
1526	1940
1527	1602
1527	1729
1527	1767
1527	1869
1527	1952
1528	1712
1529	1719
1529	1734
1529	1934
1529	1955
1530	1589
1530	1768
1530	1998
1531	1695
1531	1869
1531	1882
1531	1971
1532	1712
1532	1774
1532	1851
1533	1939
1534	1597
1535	1595
1535	1667
1535	1906
1536	1547
1536	1559
1536	1626
1536	1670
1536	1697
1537	1734
1537	1793
1537	1914
1537	1978
1538	1573
1538	1638
1538	1787
1538	1827
1538	1841
1538	1923
1539	1574
1539	1796
1539	1966
1540	1564
1540	1734
1540	1783
1540	1827
1540	1862
1541	1576
1541	1943
1542	1564
1542	1565
1542	1722
1542	1973
1542	1997
1543	1569
1543	1821
1543	1911
1543	1919
1543	1940
1544	1769
1545	1744
1545	1767
1545	1827
1545	1905
1546	1559
1546	1684
1546	1856
1547	1617
1547	1659
1548	1657
1548	1809
1548	1952
1549	1561
1549	1631
1549	1699
1549	1846
1549	1869
1549	1988
1550	1815
1550	1936
1550	1957
1551	1659
1551	1697
1551	1760
1551	1796
1551	1812
1551	1949
1552	1566
1552	1582
1552	1728
1552	1807
1553	1833
1553	1847
1554	1851
1554	1894
1554	1946
1554	1984
1555	1719
1555	1877
1556	1648
1556	1696
1558	1630
1558	1821
1558	1854
1559	1732
1559	1866
1559	1938
1560	1606
1560	1727
1560	1960
1561	1588
1561	1671
1561	1836
1561	1876
1561	1965
1562	1566
1563	1712
1564	1906
1565	1802
1565	1834
1565	1849
1565	1938
1566	1626
1566	1703
1566	1763
1567	1587
1568	1613
1568	1761
1568	1810
1568	1905
1568	1974
1569	1583
1569	1690
1569	1697
1569	1767
1569	1803
1569	1816
1570	1635
1570	1640
1570	1686
1571	1858
1571	1861
1571	1917
1572	1605
1572	1625
1572	1654
1572	1659
1572	1684
1572	1698
1572	1825
1572	1838
1573	1652
1573	1784
1574	1600
1574	1777
1574	1928
1575	1595
1575	1746
1575	1770
1575	1826
1576	1716
1576	1744
1576	1747
1576	1758
1577	1579
1577	1638
1577	1651
1577	1669
1577	1691
1577	1756
1577	1797
1578	1621
1578	1684
1579	1696
1579	1878
1579	1948
1579	1998
1580	1656
1580	1966
1581	1720
1581	1855
1581	1947
1582	1810
1583	1682
1583	1744
1583	1782
1583	1932
1583	1950
1584	1649
1584	1668
1584	1669
1584	1675
1585	1848
1585	1927
1585	1971
1586	1665
1586	1885
1587	1764
1587	1814
1587	1836
1587	1944
1587	1951
1588	1860
1589	1640
1589	1829
1589	1888
1589	1928
1589	1929
1590	1623
1590	1705
1590	1919
1591	1634
1591	1647
1591	1899
1592	1637
1592	1715
1592	1851
1592	1870
1592	1872
1594	1675
1594	1776
1594	1947
1595	1671
1595	1923
1597	1603
1597	1653
1597	1660
1597	1765
1597	1787
1597	1817
1598	1614
1598	1637
1598	1654
1598	1691
1598	1775
1598	1867
1598	1963
1599	1740
1599	1954
1600	1831
1600	1920
1601	1665
1602	1787
1602	1972
1603	1889
1604	1787
1604	1796
1604	1851
1604	1883
1604	1998
1604	1999
1605	1610
1605	1718
1605	1766
1605	1802
1606	1687
1606	1775
1607	1620
1607	1893
1608	1750
1608	1920
1609	1869
1609	1878
1610	1634
1610	1845
1611	1743
1611	1825
1612	1675
1612	1696
1612	1934
1613	1710
1613	1715
1613	1943
1613	1968
1614	1644
1614	1674
1614	1900
1614	1993
1615	1928
1615	1954
1615	1970
1615	1996
1616	1725
1616	1861
1617	1758
1617	1807
1617	1854
1617	1886
1617	1891
1618	1627
1618	1847
1619	1692
1619	1709
1619	1721
1619	1881
1619	1991
1620	1716
1620	1800
1621	1643
1621	1905
1623	1893
1623	1986
1624	1642
1624	1802
1624	1847
1624	1881
1624	1891
1625	1844
1625	1979
1626	1945
1626	1948
1626	1951
1626	1960
1627	1709
1627	1726
1627	1833
1629	1759
1629	1852
1629	1934
1629	1946
1629	1954
1630	1705
1630	1813
1631	1937
1632	1820
1632	1970
1632	1999
1633	1674
1633	1812
1633	1853
1633	1858
1633	1883
1633	1960
1634	1671
1634	1747
1635	1899
1636	1814
1636	1836
1637	1742
1637	1824
1639	1726
1639	1731
1639	1936
1639	1994
1640	1760
1641	1942
1642	1734
1642	1880
1642	1958
1643	1707
1643	1802
1643	1896
1644	1719
1645	1649
1645	1668
1645	1776
1646	1745
1646	1775
1647	1657
1647	1840
1647	1971
1648	1785
1649	1719
1649	1772
1650	1696
1650	1845
1650	1909
1650	1955
1651	1750
1651	1770
1653	1668
1653	1735
1653	1811
1653	1964
1654	1703
1654	1896
1654	1897
1654	1947
1654	1975
1655	1836
1655	1931
1656	1809
1656	1982
1657	1710
1659	1995
1660	1914
1660	1936
1660	1973
1661	1799
1661	1824
1661	1843
1662	1696
1663	1679
1663	1819
1663	1903
1663	1944
1663	1948
1665	1720
1665	1879
1665	1957
1666	1692
1667	1705
1667	1870
1667	1933
1667	1962
1669	1796
1669	1888
1670	1693
1670	1810
1670	1814
1670	1827
1670	1829
1671	1970
1672	1792
1672	1816
1672	1839
1672	1882
1672	1917
1673	1762
1673	1835
1673	1959
1673	1991
1674	1740
1674	1755
1674	1782
1674	1795
1674	1873
1675	1742
1675	1781
1675	1789
1675	1886
1675	1928
1676	1722
1676	1899
1678	1841
1678	1853
1678	1880
1678	1889
1679	1796
1679	1814
1679	1852
1679	1877
1679	1950
1680	1830
1680	1836
1680	1919
1680	1953
1680	1968
1680	1995
1681	1780
1681	1879
1682	1732
1682	1831
1683	1741
1683	1858
1684	1699
1684	1966
1684	1979
1685	1881
1685	1900
1685	1966
1686	1746
1686	1890
1687	1739
1687	1831
1687	1841
1687	1885
1687	1957
1687	1969
1688	1754
1688	1796
1688	1926
1688	1938
1689	1748
1689	1797
1690	1702
1690	1899
1693	1948
1695	1928
1695	1956
1696	1769
1696	1815
1696	1870
1696	1876
1697	1811
1698	1927
1700	1736
1701	1781
1701	1813
1701	1816
1701	1875
1701	1932
1703	1726
1703	1798
1703	1926
1703	1931
1704	1707
1704	1873
1704	1882
1705	1734
1706	1926
1706	1945
1707	1965
1708	1844
1709	1789
1710	1806
1711	1860
1711	1923
1712	1758
1712	1799
1712	1805
1712	1840
1713	1754
1713	1969
1713	1994
1714	1758
1714	1833
1714	1878
1714	1992
1715	1892
1715	1905
1716	1729
1716	1856
1716	1958
1717	1718
1717	1754
1717	1897
1717	1972
1717	1990
1718	1797
1718	1898
1719	1835
1719	1984
1720	1734
1720	1789
1721	1795
1721	1876
1722	1740
1722	1741
1722	1798
1722	1929
1722	1970
1722	1974
1723	1920
1724	1765
1724	1859
1724	1930
1724	1982
1725	1824
1726	1833
1727	1965
1728	1752
1728	1898
1728	1935
1730	1748
1730	1941
1731	1780
1731	1817
1731	1831
1731	1881
1731	1993
1732	1927
1732	1937
1734	1915
1734	1916
1734	1979
1735	1911
1736	1920
1736	1936
1737	1794
1737	1836
1738	1784
1738	1833
1738	1984
1739	1886
1739	1911
1740	1767
1740	1896
1741	1862
1742	1887
1742	1956
1742	1987
1743	1777
1743	1901
1744	1932
1745	1774
1745	1964
1746	1838
1746	1865
1747	1862
1748	1757
1748	1930
1749	1898
1750	1809
1751	1889
1751	1939
1751	1959
1752	1784
1752	1873
1753	1792
1753	1804
1753	1830
1754	1919
1755	1890
1756	1864
1756	1910
1756	1924
1757	1762
1757	1765
1757	1829
1757	1863
1757	1954
1758	1775
1758	1923
1759	1966
1760	1863
1760	1877
1761	1885
1762	1772
1762	1851
1762	1977
1763	1936
1764	1866
1765	1777
1765	1958
1765	1962
1765	1971
1766	1776
1766	1787
1766	1792
1766	1853
1766	1872
1767	1978
1768	1856
1768	1926
1768	1977
1768	1987
1769	1808
1769	1876
1769	1905
1769	1982
1770	1867
1771	1920
1772	1811
1772	1848
1773	1778
1773	1838
1774	1777
1774	1934
1775	1786
1776	1792
1777	1927
1777	1984
1778	1872
1778	1916
1780	1809
1781	1812
1781	1963
1782	1853
1782	1857
1782	1866
1782	1877
1783	1792
1783	1807
1783	1810
1784	1805
1786	1826
1786	1979
1786	1993
1787	1845
1788	1855
1789	1958
1791	1815
1791	1826
1792	1807
1792	1886
1793	1917
1794	1860
1794	1862
1795	1799
1796	1798
1796	1881
1796	1902
1796	1928
1796	1981
1797	1857
1797	1920
1798	1956
1799	1895
1802	1890
1803	1874
1803	1928
1804	1939
1804	1969
1805	1912
1805	1937
1806	1948
1806	1983
1807	1809
1809	1947
1810	1906
1810	1931
1810	1951
1814	1930
1814	1950
1815	1985
1818	1831
1818	1911
1819	1881
1819	1916
1819	1977
1822	1826
1823	1829
1823	1859
1824	1966
1825	1930
1825	1978
1826	1879
1826	1976
1827	1913
1828	1941
1829	1870
1830	1998
1831	1832
1832	1873
1832	1998
1833	1837
1833	1858
1833	1909
1834	1879
1835	1920
1837	1858
1837	1991
1839	1869
1840	1876
1841	1928
1842	1868
1843	1915
1843	1923
1843	1928
1844	1966
1846	1892
1847	1884
1849	1917
1851	1869
1851	1896
1851	1934
1852	1965
1852	1981
1853	1899
1853	1995
1854	1877
1854	1885
1855	1869
1855	1954
1857	1869
1858	1897
1860	1876
1860	1919
1860	1990
1863	1896
1863	1959
1864	1903
1865	1966
1865	1998
1866	1896
1866	1938
1868	1886
1868	1910
1872	1950
1874	1916
1875	1926
1876	1917
1877	1891
1880	1886
1881	1886
1882	1961
1883	1999
1885	1968
1886	1930
1886	1969
1887	1950
1889	1926
1892	1922
1892	1999
1895	1980
1898	1921
1898	1973
1900	1929
1900	1986
1901	1975
1902	1933
1905	1974
1906	1981
1906	1994
1907	1953
1907	1957
1909	1946
1909	1959
1910	1915
1910	1995
1911	1938
1914	1973
1915	1933
1915	1991
1916	1982
1918	1947
1920	1973
1922	1924
1927	1969
1927	1975
1928	1933
1929	1955
1932	1970
1933	1962
1936	1937
1936	1946
1937	1970
1938	1976
1939	1942
1946	1954
1948	1993
1949	1971
1955	1957
1959	1972
1960	1996
1966	1999
